[
  {
    "id": 3001,
    "army": "Ariadna",
    "isc": "Line Kazak",
    "legacy_isc": "Line Kazak",
    "name": "Line Kazak",
    "type": "LI",
    "classification": "Line",
    "imp": "",
    "irr": "",
    "cube": "",
    "mov": "4-4",
    "cc": "13",
    "bs": "11",
    "ph": "11",
    "wip": "13",
    "arm": "1",
    "bts": "0",
    "w": "1",
    "s": "2",
    "ava": "T",
    "spec": [],
    "childs": [
      {
        "id": 1,
        "name": "Rifle",
        "legacy_code": "Default",
        "cost": "9",
        "swc": "0",
        "spec": [],
        "bsw": [
          "Rifle"
        ],
        "ccw": [
          "Knife",
          "Pistol"
        ]
      },
      {
        "id": 2,
        "name": "Lieutenant",
        "legacy_code": "Lieutenant",
        "cost": "9",
        "swc": "0",
        "spec": [
          "Lieutenant"
        ],
        "bsw": [
          "Rifle"
        ],
        "ccw": [
          "Knife",
          "Pistol"
        ]
      },
      {
        "id": 3,
        "name": "Paramedic",
        "legacy_code": "Paramedic",
        "cost": "11",
        "swc": "0",
        "spec": [
          "Paramedic",
          "MediKit"
        ],
        "bsw": [
          "Rifle"
        ],
        "ccw": [
          "Knife",
          "Pistol"
        ]
      },
      {
        "id": 4,
        "name": "Observer",
        "legacy_code": "Observer",
        "cost": "10",
        "swc": "0",
        "spec": [
          "Forward Observer"
        ],
        "bsw": [
          "Rifle"
        ],
        "ccw": [
          "Knife",
          "Pistol"
        ]
      },
      {
        "id": 5,
        "name": "Missile Launcher",
        "legacy_code": "Missile Launcher",
        "cost": "17",
        "swc": "1.5",
        "spec": [],
        "bsw": [
          "Missile Launcher"
        ],
        "ccw": [
          "Knife",
          "Pistol"
        ]
      },
      {
        "id": 6,
        "name": "Sniper Rifle",
        "legacy_code": "Sniper Rifle",
        "cost": "16",
        "swc": "0.5",
        "spec": [],
        "bsw": [
          "Sniper Rifle"
        ],
        "ccw": [
          "Knife",
          "Pistol"
        ]
      },
      {
        "id": 7,
        "name": "Light Grenade Launcher",
        "legacy_code": "Light Grenade Launcher",
        "cost": "13",
        "swc": "1",
        "spec": [],
        "bsw": [
          "Light Grenade Launcher",
          "Rifle"
        ],
        "ccw": [
          "Knife",
          "Pistol"
        ]
      },
      {
        "id": 8,
        "name": "AP HMG",
        "legacy_code": "AP HMG",
        "cost": "23",
        "swc": "1",
        "spec": [],
        "bsw": [
          "AP HMG"
        ],
        "ccw": [
          "Knife",
          "Pistol"
        ]
      }
    ]
  },
  {
    "id": 3002,
    "army": "Ariadna",
    "isc": "Para-Commandos",
    "legacy_isc": "Para-Commandos",
    "name": "Para-Commando",
    "type": "LI",
    "classification": "Specially Trained",
    "imp": "",
    "irr": "",
    "cube": "",
    "mov": "4-4",
    "cc": "13",
    "bs": "12",
    "ph": "11",
    "wip": "14",
    "arm": "2",
    "bts": "0",
    "w": "1",
    "s": "2",
    "ava": "3",
    "spec": [
      "AD: Parachutist",
      "CH: Mimetism"
    ],
    "childs": [
      {
        "id": 1,
        "name": "Rifle",
        "legacy_code": "Default",
        "cost": "20",
        "swc": "0",
        "spec": [],
        "bsw": [
          "Rifle"
        ],
        "ccw": [
          "Knife",
          "Pistol"
        ]
      },
      {
        "id": 2,
        "name": "Observer",
        "legacy_code": "Observer",
        "cost": "21",
        "swc": "0",
        "spec": [
          "Forward Observer"
        ],
        "bsw": [
          "Rifle"
        ],
        "ccw": [
          "Knife",
          "Pistol"
        ]
      },
      {
        "id": 3,
        "name": "Sniper Rifle",
        "legacy_code": "Sniper Rifle",
        "cost": "27",
        "swc": "0.5",
        "spec": [],
        "bsw": [
          "Sniper Rifle"
        ],
        "ccw": [
          "Knife",
          "Pistol"
        ]
      },
      {
        "id": 4,
        "name": "Light Grenade Launcher",
        "legacy_code": "Light Grenade Launcher",
        "cost": "24",
        "swc": "1",
        "spec": [],
        "bsw": [
          "Light Grenade Launcher",
          "Rifle"
        ],
        "ccw": [
          "Knife",
          "Pistol"
        ]
      },
      {
        "id": 5,
        "name": "Boarding Shotgun",
        "legacy_code": "Boarding Shotgun",
        "cost": "22",
        "swc": "0",
        "spec": [],
        "bsw": [
          "Boarding Shotgun"
        ],
        "ccw": [
          "Knife",
          "Pistol"
        ]
      },
      {
        "id": 6,
        "name": "HMG",
        "legacy_code": "HMG",
        "cost": "31",
        "swc": "1",
        "spec": [],
        "bsw": [
          "HMG"
        ],
        "ccw": [
          "Knife",
          "Pistol"
        ]
      }
    ]
  },
  {
    "id": 3003,
    "army": "Ariadna",
    "isc": "Kazak Spetsnazs",
    "legacy_isc": "Kazak Spetsnazs",
    "name": "Kazak Spetsnaz",
    "type": "LI",
    "classification": "Elite",
    "imp": "",
    "irr": "",
    "cube": "",
    "mov": "4-4",
    "cc": "20",
    "bs": "12",
    "ph": "12",
    "wip": "13",
    "arm": "2",
    "bts": "0",
    "w": "1",
    "s": "2",
    "ava": "2",
    "spec": [
      "Marksmanship L2",
      "Martial Arts L2"
    ],
    "childs": [
      {
        "id": 1,
        "name": "HMG",
        "legacy_code": "Default",
        "cost": "38",
        "swc": "1.5",
        "spec": [
          "CH: Ambush Camouflage"
        ],
        "bsw": [
          "HMG"
        ],
        "ccw": [
          "Knife",
          "Pistol",
          "CCW"
        ]
      },
      {
        "id": 2,
        "name": "Sniper Rifle",
        "legacy_code": "Sniper Rifle",
        "cost": "34",
        "swc": "1.5",
        "spec": [
          "CH: Ambush Camouflage"
        ],
        "bsw": [
          "Sniper Rifle"
        ],
        "ccw": [
          "Knife",
          "Pistol",
          "CCW"
        ]
      },
      {
        "id": 3,
        "name": "Boarding Shotgun",
        "legacy_code": "Boarding Shotgun",
        "cost": "33",
        "swc": "0",
        "spec": [
          "CH: Mimetism",
          "AD: Parachutist"
        ],
        "bsw": [
          "Boarding Shotgun",
          "Grenades"
        ],
        "ccw": [
          "Knife",
          "Pistol",
          "AP CCW"
        ]
      },
      {
        "id": 4,
        "name": "Rifle",
        "legacy_code": "Rifle",
        "cost": "31",
        "swc": "0",
        "spec": [
          "CH: Mimetism",
          "AD: Parachutist"
        ],
        "bsw": [
          "Rifle",
          "Grenades"
        ],
        "ccw": [
          "Knife",
          "Pistol",
          "AP CCW"
        ]
      }
    ]
  },
  {
    "id": 3004,
    "army": "Ariadna",
    "isc": "USAriadna Grunts",
    "legacy_isc": "USAriadna Grunts",
    "name": "USAriadna Grunt",
    "type": "MI",
    "classification": "Garrison",
    "imp": "",
    "irr": "",
    "cube": "",
    "mov": "4-2",
    "cc": "13",
    "bs": "11",
    "ph": "11",
    "wip": "12",
    "arm": "3",
    "bts": "0",
    "w": "1",
    "s": "2",
    "ava": "2",
    "spec": [
      "Shock Immunity"
    ],
    "childs": [
      {
        "id": 1,
        "name": "Rifle",
        "legacy_code": "Default",
        "cost": "10",
        "swc": "0",
        "spec": [],
        "bsw": [
          "Rifle"
        ],
        "ccw": [
          "Knife",
          "Pistol"
        ]
      },
      {
        "id": 2,
        "name": "LGL Lieutenant",
        "legacy_code": "LGL Lieutenant",
        "cost": "14",
        "swc": "1",
        "spec": [
          "Lieutenant"
        ],
        "bsw": [
          "Rifle",
          "Light Grenade Launcher"
        ],
        "ccw": [
          "Knife",
          "Pistol"
        ]
      },
      {
        "id": 3,
        "name": "Lieutenant",
        "legacy_code": "Lieutenant",
        "cost": "10",
        "swc": "1",
        "spec": [
          "Lieutenant"
        ],
        "bsw": [
          "Rifle"
        ],
        "ccw": [
          "Knife",
          "Pistol"
        ]
      },
      {
        "id": 4,
        "name": "Paramedic",
        "legacy_code": "Paramedic",
        "cost": "12",
        "swc": "0",
        "spec": [
          "Paramedic",
          "MediKit"
        ],
        "bsw": [
          "Rifle"
        ],
        "ccw": [
          "Knife",
          "Pistol"
        ]
      },
      {
        "id": 5,
        "name": "Observer",
        "legacy_code": "Observer",
        "cost": "11",
        "swc": "0",
        "spec": [
          "Forward Observer"
        ],
        "bsw": [
          "Rifle"
        ],
        "ccw": [
          "Knife",
          "Pistol"
        ]
      },
      {
        "id": 6,
        "name": "Inferior Infiltration",
        "legacy_code": "Inferior Infiltration",
        "cost": "11",
        "swc": "0.5",
        "spec": [
          "Inferior Infiltration"
        ],
        "bsw": [
          "Heavy Flamethrower",
          "Light Shotgun"
        ],
        "ccw": [
          "Knife",
          "Pistol"
        ]
      },
      {
        "id": 7,
        "name": "Sniper Rifle",
        "legacy_code": "Sniper Rifle",
        "cost": "18",
        "swc": "0.5",
        "spec": [
          "Marksmanship LX"
        ],
        "bsw": [
          "Sniper Rifle"
        ],
        "ccw": [
          "Knife",
          "Pistol"
        ]
      },
      {
        "id": 8,
        "name": "Light Grenade Launcher",
        "legacy_code": "Light Grenade Launcher",
        "cost": "14",
        "swc": "1",
        "spec": [],
        "bsw": [
          "Rifle",
          "Light Grenade Launcher"
        ],
        "ccw": [
          "Knife",
          "Pistol"
        ]
      },
      {
        "id": 9,
        "name": "HMG",
        "legacy_code": "HMG",
        "cost": "21",
        "swc": "1",
        "spec": [],
        "bsw": [
          "HMG"
        ],
        "ccw": [
          "Knife",
          "Pistol"
        ]
      },
      {
        "id": 10,
        "name": "Heavy Flamethrower",
        "legacy_code": "Heavy Flamethrower",
        "cost": "10",
        "swc": "0",
        "spec": [],
        "bsw": [
          "Heavy Flamethrower",
          "Light Shotgun"
        ],
        "ccw": [
          "Knife",
          "Pistol"
        ]
      }
    ]
  },
  {
    "id": 3005,
    "army": "Ariadna",
    "isc": "TankHunters",
    "legacy_isc": "TankHunters",
    "name": "TankHunter",
    "type": "MI",
    "classification": "Elite",
    "imp": "",
    "irr": "",
    "cube": "",
    "mov": "4-2",
    "cc": "14",
    "bs": "12",
    "ph": "12",
    "wip": "14",
    "arm": "3",
    "bts": "0",
    "w": "1",
    "s": "2",
    "ava": "3",
    "spec": [
      "CH: Camouflage",
      "V: Courage"
    ],
    "childs": [
      {
        "id": 1,
        "name": "AP Rifle",
        "legacy_code": "Default",
        "cost": "25",
        "swc": "0",
        "spec": [],
        "bsw": [
          "AP Rifle",
          "Adhesive Launcher"
        ],
        "ccw": [
          "Knife",
          "Pistol",
          "D-Charges"
        ]
      },
      {
        "id": 2,
        "name": "Lieutenant",
        "legacy_code": "Lieutenant",
        "cost": "25",
        "swc": "1",
        "spec": [
          "Lieutenant"
        ],
        "bsw": [
          "AP Rifle",
          "Adhesive Launcher"
        ],
        "ccw": [
          "Knife",
          "Pistol",
          "D-Charges"
        ]
      },
      {
        "id": 3,
        "name": "Missile Launcher",
        "legacy_code": "Missile Launcher",
        "cost": "29",
        "swc": "1.5",
        "spec": [],
        "bsw": [
          "Missile Launcher"
        ],
        "ccw": [
          "Knife",
          "Pistol"
        ]
      },
      {
        "id": 4,
        "name": "Autocannon",
        "legacy_code": "Autocannon",
        "cost": "34",
        "swc": "1.5",
        "spec": [],
        "bsw": [
          "Autocannon"
        ],
        "ccw": [
          "Knife",
          "Pistol",
          "D-Charges"
        ]
      },
      {
        "id": 5,
        "name": "AP HMG",
        "legacy_code": "AP HMG",
        "cost": "35",
        "swc": "1.5",
        "spec": [],
        "bsw": [
          "AP HMG"
        ],
        "ccw": [
          "Knife",
          "Pistol",
          "D-Charges"
        ]
      }
    ]
  },
  {
    "id": 3006,
    "army": "Ariadna",
    "isc": "5th Minutemen 'Ohio'",
    "legacy_isc": "Minutemen",
    "name": "Minuteman",
    "type": "HI",
    "classification": "Veteran",
    "imp": "",
    "irr": "",
    "cube": "",
    "mov": "4-4",
    "cc": "17",
    "bs": "13",
    "ph": "13",
    "wip": "12",
    "arm": "3",
    "bts": "0",
    "w": "1",
    "s": "2",
    "ava": "3",
    "spec": [
      "Multiterrain",
      "Shock Immunity",
      "Kinematika L1",
      "Not Hackable"
    ],
    "childs": [
      {
        "id": 1,
        "name": "Rifle",
        "legacy_code": "Default",
        "cost": "22",
        "swc": "0",
        "spec": [],
        "bsw": [
          "Rifle",
          "Light Flamethrower (2)"
        ],
        "ccw": [
          "CCW",
          "Pistol"
        ]
      },
      {
        "id": 2,
        "name": "HMG Lieutenant",
        "legacy_code": "HMG Lieutenant",
        "cost": "34",
        "swc": "1",
        "spec": [
          "Lieutenant"
        ],
        "bsw": [
          "AP HMG"
        ],
        "ccw": [
          "CCW",
          "Pistol"
        ]
      },
      {
        "id": 3,
        "name": "Lieutenant",
        "legacy_code": "Lieutenant",
        "cost": "22",
        "swc": "0",
        "spec": [
          "Lieutenant"
        ],
        "bsw": [
          "Rifle",
          "Light Flamethrower (2)"
        ],
        "ccw": [
          "CCW",
          "Pistol"
        ]
      },
      {
        "id": 4,
        "name": "Marksman",
        "legacy_code": "Marksman",
        "cost": "29",
        "swc": "0",
        "spec": [
          "Marksmanship L1",
          "X Visor"
        ],
        "bsw": [
          "AP Rifle",
          "Light Flamethrower (2)"
        ],
        "ccw": [
          "CCW",
          "Pistol"
        ]
      },
      {
        "id": 5,
        "name": "Observer",
        "legacy_code": "Observer",
        "cost": "23",
        "swc": "0",
        "spec": [
          "Forward Observer"
        ],
        "bsw": [
          "Rifle",
          "Light Flamethrower (2)"
        ],
        "ccw": [
          "CCW",
          "Pistol"
        ]
      },
      {
        "id": 6,
        "name": "Missile Launcher",
        "legacy_code": "Missile Launcher",
        "cost": "29",
        "swc": "1.5",
        "spec": [],
        "bsw": [
          "Missile Launcher",
          "Light Flamethrower"
        ],
        "ccw": [
          "CCW",
          "Pistol"
        ]
      },
      {
        "id": 7,
        "name": "Boarding Shotgun",
        "legacy_code": "Boarding Shotgun",
        "cost": "24",
        "swc": "0",
        "spec": [],
        "bsw": [
          "Boarding Shotgun",
          "Grenades"
        ],
        "ccw": [
          "CCW",
          "Pistol"
        ]
      },
      {
        "id": 8,
        "name": "AP HMG",
        "legacy_code": "AP HMG",
        "cost": "34",
        "swc": "1.5",
        "spec": [],
        "bsw": [
          "AP HMG"
        ],
        "ccw": [
          "CCW",
          "Pistol"
        ]
      }
    ]
  },
  {
    "id": 3007,
    "army": "Ariadna",
    "isc": "Moblots",
    "legacy_isc": "Moblots",
    "name": "Moblot",
    "type": "HI",
    "classification": "Veteran",
    "imp": "",
    "irr": "",
    "cube": "",
    "mov": "4-4",
    "cc": "15",
    "bs": "13",
    "ph": "12",
    "wip": "13",
    "arm": "3",
    "bts": "0",
    "w": "1",
    "s": "2",
    "ava": "3",
    "spec": [
      "Jungle Terrain",
      "Shock Immunity",
      "Not Hackable"
    ],
    "childs": [
      {
        "id": 1,
        "name": "Rifle",
        "legacy_code": "Default",
        "cost": "21",
        "swc": "0",
        "spec": [],
        "bsw": [
          "Rifle",
          "Light Shotgun"
        ],
        "ccw": [
          "Knife",
          "Pistol"
        ]
      },
      {
        "id": 2,
        "name": "Sapper",
        "legacy_code": "Sapper",
        "cost": "31",
        "swc": "2",
        "spec": [
          "Sapper"
        ],
        "bsw": [
          "HMG"
        ],
        "ccw": [
          "Knife",
          "Pistol"
        ]
      },
      {
        "id": 3,
        "name": "Infiltrator AP",
        "legacy_code": "Infiltrator AP",
        "cost": "30",
        "swc": "0",
        "spec": [
          "Infiltration"
        ],
        "bsw": [
          "AP Rifle",
          "D.E.P.",
          "Light Shotgun"
        ],
        "ccw": [
          "Knife",
          "Pistol"
        ]
      },
      {
        "id": 4,
        "name": "HMG Lieutenant",
        "legacy_code": "HMG Lieutenant",
        "cost": "29",
        "swc": "1",
        "spec": [
          "Lieutenant"
        ],
        "bsw": [
          "HMG"
        ],
        "ccw": [
          "Knife",
          "Pistol"
        ]
      },
      {
        "id": 5,
        "name": "Lieutenant",
        "legacy_code": "Lieutenant",
        "cost": "21",
        "swc": "0",
        "spec": [
          "Lieutenant"
        ],
        "bsw": [
          "Rifle",
          "Light Shotgun"
        ],
        "ccw": [
          "Knife",
          "Pistol"
        ]
      },
      {
        "id": 6,
        "name": "Paramedic",
        "legacy_code": "Paramedic",
        "cost": "23",
        "swc": "0",
        "spec": [
          "Paramedic",
          "MediKit"
        ],
        "bsw": [
          "Rifle",
          "Light Shotgun"
        ],
        "ccw": [
          "Knife",
          "Pistol"
        ]
      },
      {
        "id": 7,
        "name": "Engineer",
        "legacy_code": "Engineer",
        "cost": "25",
        "swc": "0",
        "spec": [
          "Engineer"
        ],
        "bsw": [
          "Rifle",
          "Light Shotgun"
        ],
        "ccw": [
          "Knife",
          "Pistol",
          "D-Charges"
        ]
      },
      {
        "id": 8,
        "name": "Infiltration",
        "legacy_code": "Infiltration",
        "cost": "26",
        "swc": "0",
        "spec": [
          "Infiltration"
        ],
        "bsw": [
          "Rifle",
          "Light Shotgun",
          "E/Mauler"
        ],
        "ccw": [
          "Knife",
          "Pistol"
        ]
      },
      {
        "id": 9,
        "name": "Mimetism",
        "legacy_code": "Mimetism",
        "cost": "23",
        "swc": "0",
        "spec": [
          "CH: Mimetism"
        ],
        "bsw": [
          "Rifle",
          "Light Shotgun"
        ],
        "ccw": [
          "Knife",
          "Pistol"
        ]
      },
      {
        "id": 10,
        "name": "Panzerfaust",
        "legacy_code": "Panzerfaust",
        "cost": "23",
        "swc": "0",
        "spec": [],
        "bsw": [
          "Panzerfaust",
          "Boarding Shotgun"
        ],
        "ccw": [
          "Knife",
          "Pistol"
        ]
      },
      {
        "id": 11,
        "name": "AP Rifle",
        "legacy_code": "AP Rifle",
        "cost": "23",
        "swc": "0",
        "spec": [],
        "bsw": [
          "AP Rifle",
          "Light Shotgun"
        ],
        "ccw": [
          "Knife",
          "Pistol"
        ]
      },
      {
        "id": 12,
        "name": "HMG",
        "legacy_code": "HMG",
        "cost": "29",
        "swc": "1.5",
        "spec": [],
        "bsw": [
          "HMG"
        ],
        "ccw": [
          "Knife",
          "Pistol"
        ]
      }
    ]
  },
  {
    "id": 3008,
    "army": "Ariadna",
    "isc": "Veteran Kazaks",
    "legacy_isc": "Veteran Kazaks",
    "name": "Veteran Kazak",
    "type": "HI",
    "classification": "Elite",
    "imp": "",
    "irr": "",
    "cube": "",
    "mov": "4-4",
    "cc": "17",
    "bs": "13",
    "ph": "12",
    "wip": "14",
    "arm": "4",
    "bts": "0",
    "w": "1",
    "s": "2",
    "ava": "2",
    "spec": [
      "CH: Mimetism",
      "Not Hackable",
      "Shock Immunity",
      "Veteran L2 (V: No Wound Incapacitation, Sixth Sense L2)"
    ],
    "childs": [
      {
        "id": 1,
        "name": "AP Rifle",
        "legacy_code": "Default",
        "cost": "37",
        "swc": "0",
        "spec": [],
        "bsw": [
          "AP Rifle",
          "Light Flamethrower"
        ],
        "ccw": [
          "Knife",
          "Heavy Pistol"
        ]
      },
      {
        "id": 2,
        "name": "X Visor",
        "legacy_code": "X Visor",
        "cost": "38",
        "swc": "0",
        "spec": [
          "X Visor"
        ],
        "bsw": [
          "T2 Rifle",
          "Light Flamethrower"
        ],
        "ccw": [
          "Knife",
          "Heavy Pistol"
        ]
      },
      {
        "id": 3,
        "name": "AP HMG Lieutenant",
        "legacy_code": "AP HMG Lieutenant",
        "cost": "47",
        "swc": "1",
        "spec": [
          "Lieutenant"
        ],
        "bsw": [
          "AP HMG"
        ],
        "ccw": [
          "Knife",
          "Heavy Pistol"
        ]
      },
      {
        "id": 4,
        "name": "Lieutenant",
        "legacy_code": "Lieutenant",
        "cost": "37",
        "swc": "0",
        "spec": [
          "Lieutenant"
        ],
        "bsw": [
          "AP Rifle",
          "Light Flamethrower"
        ],
        "ccw": [
          "Knife",
          "Heavy Pistol"
        ]
      },
      {
        "id": 5,
        "name": "Observer",
        "legacy_code": "Observer",
        "cost": "38",
        "swc": "0",
        "spec": [
          "Forward Observer"
        ],
        "bsw": [
          "AP Rifle",
          "Light Flamethrower"
        ],
        "ccw": [
          "Knife",
          "Heavy Pistol"
        ]
      },
      {
        "id": 6,
        "name": "Paramedic",
        "legacy_code": "Paramedic",
        "cost": "39",
        "swc": "0",
        "spec": [
          "Paramedic",
          "MediKit"
        ],
        "bsw": [
          "AP Rifle",
          "Light Flamethrower"
        ],
        "ccw": [
          "Knife",
          "Heavy Pistol"
        ]
      },
      {
        "id": 7,
        "name": "Boarding Shotgun",
        "legacy_code": "Boarding Shotgun",
        "cost": "35",
        "swc": "0",
        "spec": [],
        "bsw": [
          "Boarding Shotgun"
        ],
        "ccw": [
          "Knife",
          "Heavy Pistol"
        ]
      },
      {
        "id": 8,
        "name": "AP HMG",
        "legacy_code": "AP HMG",
        "cost": "47",
        "swc": "2",
        "spec": [],
        "bsw": [
          "AP HMG"
        ],
        "ccw": [
          "Knife",
          "Heavy Pistol"
        ]
      }
    ]
  },
  {
    "id": 3009,
    "army": "Ariadna",
    "isc": "Foxtrot",
    "legacy_isc": "Foxtrot",
    "name": "Foxtrot",
    "type": "SK",
    "classification": "Specially Trained",
    "imp": "",
    "irr": "",
    "cube": "",
    "mov": "4-4",
    "cc": "13",
    "bs": "11",
    "ph": "13",
    "wip": "13",
    "arm": "0",
    "bts": "0",
    "w": "1",
    "s": "2",
    "ava": "3",
    "spec": [
      "CH: Camouflage",
      "Infiltration",
      "Multiterrain"
    ],
    "childs": [
      {
        "id": 1,
        "name": "Rifle",
        "legacy_code": "Default",
        "cost": "17",
        "swc": "0",
        "spec": [],
        "bsw": [
          "Rifle",
          "Antipersonnel Mines"
        ],
        "ccw": [
          "Knife",
          "Pistol"
        ]
      },
      {
        "id": 2,
        "name": "Lieutenant",
        "legacy_code": "Lieutenant",
        "cost": "17",
        "swc": "2",
        "spec": [
          "Lieutenant"
        ],
        "bsw": [
          "Rifle",
          "Antipersonnel Mines"
        ],
        "ccw": [
          "Knife",
          "Pistol"
        ]
      },
      {
        "id": 3,
        "name": "Observer",
        "legacy_code": "Observer",
        "cost": "18",
        "swc": "0",
        "spec": [
          "Forward Observer"
        ],
        "bsw": [
          "Rifle",
          "Antipersonnel Mines"
        ],
        "ccw": [
          "Knife",
          "Pistol"
        ]
      },
      {
        "id": 4,
        "name": "Sniper Rifle",
        "legacy_code": "Sniper Rifle",
        "cost": "24",
        "swc": "0.5",
        "spec": [],
        "bsw": [
          "Sniper Rifle",
          "Antipersonnel Mines"
        ],
        "ccw": [
          "Knife",
          "Pistol"
        ]
      },
      {
        "id": 5,
        "name": "Light Grenade Launcher",
        "legacy_code": "Light Grenade Launcher",
        "cost": "20",
        "swc": "1",
        "spec": [],
        "bsw": [
          "Rifle",
          "Light Grenade Launcher"
        ],
        "ccw": [
          "Knife",
          "Pistol"
        ]
      },
      {
        "id": 6,
        "name": "Boarding Shotgun",
        "legacy_code": "Boarding Shotgun",
        "cost": "19",
        "swc": "0",
        "spec": [],
        "bsw": [
          "Boarding Shotgun",
          "Antipersonnel Mines"
        ],
        "ccw": [
          "Knife",
          "Pistol"
        ]
      }
    ]
  },
  {
    "id": 3010,
    "army": "Ariadna",
    "isc": "Hardcases",
    "legacy_isc": "Hardcases",
    "name": "Hardcase Frontiersman",
    "type": "SK",
    "classification": "Specially Trained",
    "imp": "",
    "irr": "X",
    "cube": "",
    "mov": "4-4",
    "cc": "14",
    "bs": "11",
    "ph": "13",
    "wip": "12",
    "arm": "0",
    "bts": "0",
    "w": "1",
    "s": "2",
    "ava": "2",
    "spec": [
      "CH: Ambush Camouflage",
      "Infiltration",
      "Multiterrain"
    ],
    "childs": [
      {
        "id": 1,
        "name": "Tactical Bow",
        "legacy_code": "Default",
        "cost": "12",
        "swc": "0",
        "spec": [],
        "bsw": [
          "Tactical Bow",
          "Light Shotgun"
        ],
        "ccw": [
          "Knife",
          "Pistol"
        ]
      },
      {
        "id": 2,
        "name": "Rifle",
        "legacy_code": "Rifle",
        "cost": "14",
        "swc": "0",
        "spec": [],
        "bsw": [
          "Tactical Bow",
          "Rifle"
        ],
        "ccw": [
          "Knife",
          "Pistol"
        ]
      }
    ]
  },
  {
    "id": 3011,
    "army": "Ariadna",
    "isc": "S.A.S.",
    "legacy_isc": "S.A.S.",
    "name": "S.A.S.",
    "type": "SK",
    "classification": "Specially Trained",
    "imp": "",
    "irr": "",
    "cube": "",
    "mov": "4-4",
    "cc": "19",
    "bs": "11",
    "ph": "13",
    "wip": "13",
    "arm": "0",
    "bts": "0",
    "w": "1",
    "s": "2",
    "ava": "2",
    "spec": [
      "CH: Camouflage",
      "Infiltration",
      "Kinematika L1",
      "Martial Arts L2",
      "Multiterrain"
    ],
    "childs": [
      {
        "id": 1,
        "name": "Assault Pistol",
        "legacy_code": "Assault Pistol",
        "cost": "22",
        "swc": "0",
        "spec": [],
        "bsw": [
          "Chain Rifle",
          "Grenades"
        ],
        "ccw": [
          "AP CCW",
          "Knife",
          "Assault Pistol"
        ]
      },
      {
        "id": 2,
        "name": "Chain Rifle",
        "legacy_code": "Chain Rifle",
        "cost": "21",
        "swc": "0",
        "spec": [],
        "bsw": [
          "Chain Rifle",
          "Light Shotgun"
        ],
        "ccw": [
          "AP CCW",
          "Knife",
          "Pistol"
        ]
      },
      {
        "id": 3,
        "name": "Rifle",
        "legacy_code": "Default",
        "cost": "23",
        "swc": "0",
        "spec": [],
        "bsw": [
          "Rifle"
        ],
        "ccw": [
          "AP CCW",
          "Knife",
          "Pistol"
        ]
      },
      {
        "id": 4,
        "name": "Lieutenant",
        "legacy_code": "Lieutenant",
        "cost": "23",
        "swc": "2",
        "spec": [
          "Lieutenant"
        ],
        "bsw": [
          "Rifle"
        ],
        "ccw": [
          "AP CCW",
          "Knife",
          "Pistol"
        ]
      },
      {
        "id": 5,
        "name": "Observer",
        "legacy_code": "Observer",
        "cost": "24",
        "swc": "0",
        "spec": [
          "Forward Observer"
        ],
        "bsw": [
          "Rifle"
        ],
        "ccw": [
          "AP CCW",
          "Knife",
          "Pistol"
        ]
      },
      {
        "id": 6,
        "name": "Sniper Rifle",
        "legacy_code": "Sniper Rifle",
        "cost": "30",
        "swc": "0.5",
        "spec": [],
        "bsw": [
          "Sniper Rifle"
        ],
        "ccw": [
          "AP CCW",
          "Knife",
          "Pistol"
        ]
      },
      {
        "id": 7,
        "name": "Boarding Shotgun",
        "legacy_code": "Boarding Shotgun",
        "cost": "25",
        "swc": "0",
        "spec": [],
        "bsw": [
          "Boarding Shotgun"
        ],
        "ccw": [
          "AP CCW",
          "Knife",
          "Pistol"
        ]
      }
    ]
  },
  {
    "id": 3012,
    "army": "Ariadna",
    "isc": "Scouts",
    "legacy_isc": "Scouts",
    "name": "Scout",
    "type": "SK",
    "classification": "Elite",
    "imp": "",
    "irr": "",
    "cube": "",
    "mov": "4-4",
    "cc": "13",
    "bs": "12",
    "ph": "13",
    "wip": "13",
    "arm": "1",
    "bts": "0",
    "w": "1",
    "s": "2",
    "ava": "3",
    "spec": [
      "CH: Camouflage",
      "Infiltration",
      "Marksmanship L1",
      "Multiterrain"
    ],
    "childs": [
      {
        "id": 1,
        "name": "Ojotnik",
        "legacy_code": "Default",
        "cost": "29",
        "swc": "0",
        "spec": [],
        "bsw": [
          "Ojotnik",
          "Antipersonnel Mines"
        ],
        "ccw": [
          "Knife",
          "Pistol",
          "D-Charges"
        ]
      },
      {
        "id": 2,
        "name": "Lieutenant",
        "legacy_code": "Lieutenant",
        "cost": "29",
        "swc": "0",
        "spec": [
          "Lieutenant"
        ],
        "bsw": [
          "Ojotnik",
          "Antipersonnel Mines"
        ],
        "ccw": [
          "Knife",
          "Pistol",
          "D-Charges"
        ]
      },
      {
        "id": 3,
        "name": "Observer",
        "legacy_code": "Observer",
        "cost": "30",
        "swc": "0",
        "spec": [
          "Forward Observer"
        ],
        "bsw": [
          "Ojotnik",
          "Antipersonnel Mines"
        ],
        "ccw": [
          "Knife",
          "Pistol",
          "D-Charges"
        ]
      },
      {
        "id": 4,
        "name": "AP Sniper Rifle",
        "legacy_code": "AP Sniper Rifle",
        "cost": "29",
        "swc": "1",
        "spec": [],
        "bsw": [
          "AP Sniper Rifle",
          "Antipersonnel Mines"
        ],
        "ccw": [
          "Knife",
          "Pistol"
        ]
      },
      {
        "id": 5,
        "name": "Boarding Shotgun",
        "legacy_code": "Boarding Shotgun",
        "cost": "25",
        "swc": "0",
        "spec": [],
        "bsw": [
          "Boarding Shotgun",
          "Antipersonnel Mines"
        ],
        "ccw": [
          "Knife",
          "Pistol",
          "D-Charges"
        ]
      },
      {
        "id": 6,
        "name": "E/Mauler",
        "legacy_code": "E/Mauler",
        "cost": "29",
        "swc": "0",
        "spec": [],
        "bsw": [
          "E/Mauler",
          "Ojotnik"
        ],
        "ccw": [
          "Knife",
          "Pistol",
          "D-Charges"
        ]
      }
    ]
  },
  {
    "id": 3013,
    "army": "Ariadna",
    "isc": "45th Highlanders",
    "legacy_isc": "45th Highlanders",
    "name": "Highlander",
    "type": "WB",
    "classification": "Line",
    "imp": "X",
    "irr": "X",
    "cube": "",
    "mov": "4-4",
    "cc": "21",
    "bs": "10",
    "ph": "14",
    "wip": "14",
    "arm": "1",
    "bts": "0",
    "w": "1",
    "s": "2",
    "ava": "T",
    "spec": [
      "Berserk",
      "V: Dogged"
    ],
    "childs": [
      {
        "id": 1,
        "name": "Rifle",
        "legacy_code": "Default",
        "cost": "11",
        "swc": "0",
        "spec": [],
        "bsw": [
          "Smoke Grenades",
          "Rifle"
        ],
        "ccw": [
          "AP CCW",
          "Pistol"
        ]
      },
      {
        "id": 2,
        "name": "Boarding Shotgun",
        "legacy_code": "Boarding Shotgun",
        "cost": "13",
        "swc": "0",
        "spec": [],
        "bsw": [
          "Smoke Grenades",
          "Boarding Shotgun"
        ],
        "ccw": [
          "AP CCW",
          "Pistol"
        ]
      },
      {
        "id": 3,
        "name": "Chain Rifle",
        "legacy_code": "Chain Rifle",
        "cost": "6",
        "swc": "0",
        "spec": [],
        "bsw": [
          "Smoke Grenades",
          "Chain Rifle"
        ],
        "ccw": [
          "AP CCW",
          "Pistol"
        ]
      }
    ]
  },
  {
    "id": 3014,
    "army": "Ariadna",
    "isc": "Irmandinhos",
    "legacy_isc": "Irmandinhos",
    "name": "Irmandinho",
    "type": "WB",
    "classification": "Line",
    "imp": "X",
    "irr": "X",
    "cube": "",
    "mov": "4-4",
    "cc": "20",
    "bs": "10",
    "ph": "14",
    "wip": "13",
    "arm": "1",
    "bts": "0",
    "w": "1",
    "s": "2",
    "ava": "3",
    "spec": [
      "Booty L1",
      "Engineer",
      "Scavenger"
    ],
    "childs": [
      {
        "id": 1,
        "name": "Rifle",
        "legacy_code": "Default",
        "cost": "14",
        "swc": "0",
        "spec": [],
        "bsw": [
          "Smoke Grenades",
          "Rifle"
        ],
        "ccw": [
          "D-Charges",
          "AP CCW",
          "Pistol"
        ]
      },
      {
        "id": 2,
        "name": "Boarding Shotgun",
        "legacy_code": "Boarding Shotgun",
        "cost": "16",
        "swc": "0",
        "spec": [],
        "bsw": [
          "Smoke Grenades",
          "Boarding Shotgun"
        ],
        "ccw": [
          "D-Charges",
          "AP CCW",
          "Pistol"
        ]
      },
      {
        "id": 3,
        "name": "Chain Rifle",
        "legacy_code": "Chain Rifle",
        "cost": "8",
        "swc": "0",
        "spec": [],
        "bsw": [
          "Smoke Grenades",
          "Chain Rifle"
        ],
        "ccw": [
          "D-Charges",
          "AP CCW",
          "Pistol"
        ]
      }
    ]
  },
  {
    "id": 3015,
    "army": "Ariadna",
    "isc": "Antipode Assault Pack",
    "legacy_isc": "Assault Pack Controller",
    "name": "Assault Pack Handler",
    "ava": "1",
    "spec": [],
    "profiles": [
      {
        "id": 1,
        "name": "Handler",
        "type": "WB",
        "classification": "Support",
        "imp": "",
        "irr": "",
        "cube": "",
        "mov": "4-4",
        "cc": "13",
        "bs": "11",
        "ph": "11",
        "wip": "13",
        "arm": "1",
        "bts": "0",
        "w": "1",
        "s": "2",
        "spec": [
          "Antipode Control Device"
        ],
        "bsw": [],
        "ccw": [],
        "independent": {
          "cost": "10",
          "swc": "0"
        }
      },
      {
        "id": 2,
        "name": "Antipode",
        "type": "WB",
        "imp": "F",
        "irr": "X",
        "cube": "",
        "mov": "6-6",
        "cc": "20",
        "bs": "0",
        "ph": "15",
        "wip": "13",
        "arm": "0",
        "bts": "0",
        "w": "1",
        "s": "5",
        "ava": "3",
        "spec": [
          "Antipode",
          "CH: Camouflage",
          "Jungle Terrain",
          "Kinematika L2",
          "Sensor",
          "Super-Jump"
        ],
        "bsw": [],
        "ccw": [
          "AP CCW"
        ],
        "independent": {
          "cost": "5",
          "swc": "0"
        }
      },
      {
        "id": 3,
        "name": "Antipode",
        "type": "WB",
        "imp": "F",
        "irr": "X",
        "cube": "",
        "mov": "6-6",
        "cc": "20",
        "bs": "0",
        "ph": "15",
        "wip": "13",
        "arm": "0",
        "bts": "0",
        "w": "1",
        "s": "5",
        "ava": "3",
        "spec": [
          "Antipode",
          "CH: Camouflage",
          "Jungle Terrain",
          "Kinematika L2",
          "Sensor",
          "Super-Jump"
        ],
        "bsw": [],
        "ccw": [
          "AP CCW"
        ],
        "independent": {
          "cost": "5",
          "swc": "0"
        }
      },
      {
        "id": 4,
        "name": "Antipode",
        "type": "WB",
        "imp": "F",
        "irr": "X",
        "cube": "",
        "mov": "6-6",
        "cc": "20",
        "bs": "0",
        "ph": "15",
        "wip": "13",
        "arm": "0",
        "bts": "0",
        "w": "1",
        "s": "5",
        "ava": "3",
        "spec": [
          "Antipode",
          "CH: Camouflage",
          "Jungle Terrain",
          "Kinematika L2",
          "Sensor",
          "Super-Jump"
        ],
        "bsw": [],
        "ccw": [
          "AP CCW"
        ],
        "independent": {
          "cost": "5",
          "swc": "0"
        }
      }
    ],
    "childs": [
      {
        "id": 1,
        "name": "Assault Pack",
        "legacy_code": "Default",
        "cost": "25",
        "swc": "0",
        "spec": [],
        "bsw": [
          "Rifle",
          "Smoke Light Grenade Launcher"
        ],
        "ccw": [
          "Knife",
          "Pistol"
        ]
      }
    ]
  },
  {
    "id": 3016,
    "army": "Ariadna",
    "isc": "Kazak Doktor",
    "legacy_isc": "Kazak Doktor",
    "name": "Kazak Doktor",
    "type": "LI",
    "classification": "Support",
    "imp": "",
    "irr": "",
    "cube": "",
    "mov": "4-4",
    "cc": "13",
    "bs": "11",
    "ph": "11",
    "wip": "13",
    "arm": "1",
    "bts": "0",
    "w": "1",
    "s": "2",
    "ava": "1",
    "spec": [
      "Doctor",
      "MediKit"
    ],
    "childs": [
      {
        "id": 1,
        "name": "Doctor",
        "legacy_code": "Default",
        "cost": "13",
        "swc": "0",
        "spec": [],
        "bsw": [
          "Rifle"
        ],
        "ccw": [
          "Knife",
          "Pistol"
        ]
      }
    ]
  },
  {
    "id": 3017,
    "army": "Ariadna",
    "isc": "112, Emergency Service",
    "legacy_isc": "112, Emergency Service",
    "name": "112",
    "type": "LI",
    "classification": "Support",
    "imp": "",
    "irr": "",
    "cube": "",
    "mov": "4-4",
    "cc": "13",
    "bs": "11",
    "ph": "12",
    "wip": "13",
    "arm": "0",
    "bts": "0",
    "w": "1",
    "s": "2",
    "ava": "1",
    "spec": [
      "Doctor",
      "V: Courage",
      "MediKit"
    ],
    "childs": [
      {
        "id": 1,
        "name": "Doctor",
        "legacy_code": "Default",
        "cost": "12",
        "swc": "0",
        "spec": [],
        "bsw": [
          "Light Shotgun"
        ],
        "ccw": [
          "CCW",
          "Pistol"
        ]
      }
    ]
  },
  {
    "id": 3018,
    "army": "Ariadna",
    "isc": "2nd Irregular Cameronians Reg.",
    "legacy_isc": "2nd Irregular Cameronians Reg.",
    "name": "Cameronian",
    "type": "WB",
    "classification": "Support",
    "imp": "X",
    "irr": "X",
    "cube": "",
    "mov": "6-4",
    "cc": "21",
    "bs": "10",
    "ph": "16",
    "wip": "12",
    "arm": "3",
    "bts": "0",
    "w": "2",
    "s": "6",
    "ava": "2",
    "spec": [
      "Super-Jump",
      "Total Immunity",
      "V: Courage"
    ],
    "childs": [
      {
        "id": 1,
        "name": "Chain Rifle",
        "legacy_code": "Default",
        "cost": "23",
        "swc": "0",
        "spec": [],
        "bsw": [
          "Chain Rifle (2)",
          "Grenades",
          "Smoke Grenades"
        ],
        "ccw": [
          "AP CCW"
        ]
      }
    ]
  },
  {
    "id": 3019,
    "army": "Ariadna",
    "isc": "3rd Highlander Grey Rifles",
    "legacy_isc": "3rd Highlander Greys",
    "name": "Highlander Grey",
    "type": "HI",
    "classification": "Veteran",
    "imp": "F",
    "irr": "",
    "cube": "",
    "mov": "4-4",
    "cc": "18",
    "bs": "13",
    "ph": "13",
    "wip": "12",
    "arm": "3",
    "bts": "0",
    "w": "1",
    "s": "2",
    "ava": "2",
    "spec": [
      "Shock Immunity",
      "V: Dogged",
      "Not Hackable"
    ],
    "childs": [
      {
        "id": 1,
        "name": "Lieutenant",
        "legacy_code": "Lieutenant",
        "cost": "29",
        "swc": "0",
        "spec": [
          "Lieutenant"
        ],
        "bsw": [
          "Smoke Grenades",
          "Rifle",
          "Light Shotgun (2)",
          "Grenades"
        ],
        "ccw": [
          "CCW",
          "Pistol"
        ]
      },
      {
        "id": 2,
        "name": "T2 Boarding Shotgun",
        "legacy_code": "T2 Boarding Shotgun",
        "cost": "25",
        "swc": "0",
        "spec": [],
        "bsw": [
          "Smoke Grenades",
          "T2 Boarding Shotgun",
          "Grenades",
          "D-Charges"
        ],
        "ccw": [
          "CCW",
          "Pistol"
        ]
      },
      {
        "id": 3,
        "name": "AP HMG",
        "legacy_code": "AP HMG",
        "cost": "34",
        "swc": "1.5",
        "spec": [],
        "bsw": [
          "Smoke Grenades",
          "AP HMG"
        ],
        "ccw": [
          "CCW",
          "Pistol"
        ]
      },
      {
        "id": 4,
        "name": "T2 Rifle",
        "legacy_code": "T2 Rifle",
        "cost": "33",
        "swc": "0",
        "spec": [],
        "bsw": [
          "Smoke Grenades",
          "T2 Rifle",
          "Light Shotgun (2)",
          "Grenades"
        ],
        "ccw": [
          "CCW",
          "Pistol"
        ]
      },
      {
        "id": 5,
        "name": "Rifle",
        "legacy_code": "Default",
        "cost": "29",
        "swc": "0",
        "spec": [],
        "bsw": [
          "Smoke Grenades",
          "Rifle",
          "Light Shotgun (2)",
          "Grenades"
        ],
        "ccw": [
          "CCW",
          "Pistol"
        ]
      }
    ]
  },
  {
    "id": 3020,
    "army": "Ariadna",
    "isc": "9th Wulver Grenadiers",
    "legacy_isc": "9th Wulver Grenadiers",
    "name": "Wulver",
    "type": "WB",
    "classification": "Line",
    "imp": "F",
    "irr": "",
    "cube": "",
    "mov": "4-4",
    "cc": "21",
    "bs": "12",
    "ph": "14",
    "wip": "13",
    "arm": "3",
    "bts": "0",
    "w": "2",
    "s": "2",
    "ava": "2",
    "spec": [
      "Berserk",
      "Climbing Plus",
      "Kinematika L1",
      "Natural Born Warrior"
    ],
    "childs": [
      {
        "id": 1,
        "name": "Mk12",
        "legacy_code": "Default",
        "cost": "37",
        "swc": "0",
        "spec": [],
        "bsw": [
          "Grenades",
          "Mk12"
        ],
        "ccw": [
          "AP CCW",
          "Pistol"
        ]
      },
      {
        "id": 2,
        "name": "Heavy Shotgun",
        "legacy_code": "Heavy Shotgun",
        "cost": "32",
        "swc": "0",
        "spec": [],
        "bsw": [
          "Grenades",
          "Heavy Shotgun"
        ],
        "ccw": [
          "AP CCW",
          "Pistol"
        ]
      },
      {
        "id": 3,
        "name": "T2 Rifle",
        "legacy_code": "T2 Rifle",
        "cost": "33",
        "swc": "0",
        "spec": [],
        "bsw": [
          "Grenades",
          "T2 Rifle"
        ],
        "ccw": [
          "AP CCW",
          "Pistol"
        ]
      },
      {
        "id": 4,
        "name": "Haris",
        "cost": "34",
        "swc": "1",
        "spec": [
          "Fireteam: Haris"
        ],
        "bsw": [
          "Grenades",
          "T2 Rifle"
        ],
        "ccw": [
          "AP CCW",
          "Pistol"
        ]
      }
    ]
  },
  {
    "id": 3021,
    "army": "Ariadna",
    "isc": "Caledonian Mormaers",
    "legacy_isc": "Caledonian Mormaers",
    "name": "Caledonian Mormaer",
    "type": "HI",
    "classification": "Elite",
    "imp": "",
    "irr": "",
    "cube": "",
    "mov": "4-2",
    "cc": "14",
    "bs": "13",
    "ph": "13",
    "wip": "13",
    "arm": "5",
    "bts": "0",
    "w": "1",
    "s": "2",
    "ava": "2",
    "spec": [
      "Shock Immunity",
      "V: Dogged",
      "Not Hackable"
    ],
    "childs": [
      {
        "id": 1,
        "name": "Lieutenant AP HMG",
        "legacy_code": "Lieutenant AP HMG",
        "cost": "42",
        "swc": "2",
        "spec": [
          "Lieutenant"
        ],
        "bsw": [
          "AP HMG"
        ],
        "ccw": [
          "Knife",
          "Pistol"
        ]
      },
      {
        "id": 2,
        "name": "Lieutenant",
        "legacy_code": "Lieutenant",
        "cost": "33",
        "swc": "0",
        "spec": [
          "Lieutenant",
          "X Visor"
        ],
        "bsw": [
          "T2 Rifle"
        ],
        "ccw": [
          "Knife",
          "Pistol"
        ]
      },
      {
        "id": 3,
        "name": "AP HMG",
        "legacy_code": "AP HMG",
        "cost": "42",
        "swc": "2",
        "spec": [],
        "bsw": [
          "AP HMG"
        ],
        "ccw": [
          "Knife",
          "Pistol"
        ]
      },
      {
        "id": 4,
        "name": "T2 Rifle",
        "legacy_code": "Default",
        "cost": "33",
        "swc": "0",
        "spec": [
          "X Visor"
        ],
        "bsw": [
          "T2 Rifle"
        ],
        "ccw": [
          "Knife",
          "Pistol"
        ]
      },
      {
        "id": 5,
        "name": "Haris",
        "cost": "43",
        "swc": "2.5",
        "spec": [
          "Fireteam: Haris"
        ],
        "bsw": [
          "AP HMG"
        ],
        "ccw": [
          "Knife",
          "Pistol"
        ]
      }
    ]
  },
  {
    "id": 3022,
    "army": "Ariadna",
    "isc": "Caledonian Volunteers",
    "legacy_isc": "Caledonian Volunteers",
    "name": "Volunteer",
    "type": "LI",
    "classification": "Garrison",
    "imp": "",
    "irr": "",
    "cube": "",
    "mov": "4-4",
    "cc": "13",
    "bs": "10",
    "ph": "11",
    "wip": "12",
    "arm": "1",
    "bts": "0",
    "w": "1",
    "s": "2",
    "ava": "2",
    "spec": [
      "Jungle Terrain",
      "Mountain Terrain"
    ],
    "childs": [
      {
        "id": 1,
        "name": "Lieutenant",
        "legacy_code": "Lieutenant",
        "cost": "8",
        "swc": "2",
        "spec": [
          "Lieutenant"
        ],
        "bsw": [
          "Rifle"
        ],
        "ccw": [
          "Knife",
          "Pistol"
        ]
      },
      {
        "id": 2,
        "name": "Paramedic",
        "legacy_code": "Paramedic",
        "cost": "10",
        "swc": "0",
        "spec": [
          "Paramedic",
          "MediKit"
        ],
        "bsw": [
          "Rifle"
        ],
        "ccw": [
          "Knife",
          "Pistol"
        ]
      },
      {
        "id": 3,
        "name": "Camo Light Grenade Launcher",
        "legacy_code": "Camo Light Grenade Launcher",
        "cost": "13",
        "swc": "1",
        "spec": [
          "CH: Limited Camouflage",
          "Inferior Infiltration"
        ],
        "bsw": [
          "Light Shotgun",
          "Light Grenade Launcher"
        ],
        "ccw": [
          "Knife",
          "Pistol"
        ]
      },
      {
        "id": 4,
        "name": "Camo D-Charges",
        "legacy_code": "Camo D-Charges",
        "cost": "11",
        "swc": "0",
        "spec": [
          "CH: Limited Camouflage",
          "Inferior Infiltration"
        ],
        "bsw": [
          "Rifle"
        ],
        "ccw": [
          "Knife",
          "Pistol",
          "D-Charges"
        ]
      },
      {
        "id": 5,
        "name": "Light Grenade Launcher",
        "legacy_code": "Light Grenade Launcher",
        "cost": "10",
        "swc": "0.5",
        "spec": [],
        "bsw": [
          "Light Shotgun",
          "Light Grenade Launcher"
        ],
        "ccw": [
          "Knife",
          "Pistol"
        ]
      },
      {
        "id": 6,
        "name": "HMG",
        "legacy_code": "HMG",
        "cost": "19",
        "swc": "0.5",
        "spec": [],
        "bsw": [
          "HMG"
        ],
        "ccw": [
          "Knife",
          "Pistol"
        ]
      },
      {
        "id": 7,
        "name": "Chain Rifle",
        "legacy_code": "Chain Rifle",
        "cost": "6",
        "swc": "0",
        "spec": [],
        "bsw": [
          "Chain Rifle",
          "Light Shotgun"
        ],
        "ccw": [
          "Knife",
          "Pistol"
        ]
      },
      {
        "id": 8,
        "name": "Rifle",
        "legacy_code": "Default",
        "cost": "8",
        "swc": "0",
        "spec": [],
        "bsw": [
          "Rifle"
        ],
        "ccw": [
          "Knife",
          "Pistol"
        ]
      }
    ]
  },
  {
    "id": 3023,
    "army": "Ariadna",
    "isc": "Chasseurs",
    "legacy_isc": "Chasseurs",
    "name": "Chasseur",
    "type": "SK",
    "classification": "Specially Trained",
    "imp": "",
    "irr": "",
    "cube": "",
    "mov": "4-4",
    "cc": "14",
    "bs": "11",
    "ph": "13",
    "wip": "13",
    "arm": "0",
    "bts": "0",
    "w": "1",
    "s": "2",
    "ava": "2",
    "spec": [
      "CH: Camouflage",
      "Infiltration",
      "Multiterrain",
      "Sixth Sense L1"
    ],
    "childs": [
      {
        "id": 1,
        "name": "Observer",
        "legacy_code": "Observer",
        "cost": "20",
        "swc": "0",
        "spec": [
          "Forward Observer"
        ],
        "bsw": [
          "Rifle",
          "Light Flamethrower",
          "Antipersonnel Mines"
        ],
        "ccw": [
          "Knife",
          "Pistol"
        ]
      },
      {
        "id": 2,
        "name": "Minelayer",
        "legacy_code": "Minelayer",
        "cost": "20",
        "swc": "0.5",
        "spec": [
          "Minelayer"
        ],
        "bsw": [
          "Rifle",
          "Light Flamethrower",
          "Antipersonnel Mines"
        ],
        "ccw": [
          "Knife",
          "Pistol"
        ]
      },
      {
        "id": 3,
        "name": "ADHL",
        "legacy_code": "ADHL",
        "cost": "19",
        "swc": "0.5",
        "spec": [],
        "bsw": [
          "Rifle",
          "Adhesive Launcher"
        ],
        "ccw": [
          "Knife",
          "Pistol",
          "D-Charges"
        ]
      },
      {
        "id": 4,
        "name": "AP Sniper Rifle",
        "legacy_code": "AP Sniper Rifle",
        "cost": "26",
        "swc": "1",
        "spec": [],
        "bsw": [
          "AP Sniper Rifle"
        ],
        "ccw": [
          "Knife",
          "Pistol"
        ]
      },
      {
        "id": 5,
        "name": "Rifle",
        "legacy_code": "Default",
        "cost": "19",
        "swc": "0",
        "spec": [],
        "bsw": [
          "Rifle",
          "Light Flamethrower",
          "Antipersonnel Mines"
        ],
        "ccw": [
          "Knife",
          "Pistol"
        ]
      }
    ]
  },
  {
    "id": 3024,
    "army": "Ariadna",
    "isc": "Dozers, Field Engineers",
    "legacy_isc": "Dozers, Field Engineers",
    "name": "Dozer",
    "type": "LI",
    "classification": "Support",
    "imp": "",
    "irr": "",
    "cube": "",
    "mov": "4-4",
    "cc": "13",
    "bs": "11",
    "ph": "11",
    "wip": "13",
    "arm": "1",
    "bts": "0",
    "w": "1",
    "s": "2",
    "ava": "2",
    "spec": [
      "Engineer",
      "V: Courage"
    ],
    "childs": [
      {
        "id": 1,
        "name": "Mul Control",
        "legacy_code": "Mul Control",
        "cost": "14",
        "swc": "0",
        "spec": [
          "Traktor Mul Control Device"
        ],
        "bsw": [
          "Rifle"
        ],
        "ccw": [
          "Pistol",
          "Knife",
          "D-Charges"
        ]
      },
      {
        "id": 2,
        "name": "Akrylat-Kanone",
        "legacy_code": "Akrylat K",
        "cost": "14",
        "swc": "0",
        "spec": [],
        "bsw": [
          "Rifle",
          "Akrylat-Kanone"
        ],
        "ccw": [
          "Pistol",
          "Knife"
        ]
      },
      {
        "id": 3,
        "name": "Engineer",
        "legacy_code": "Default",
        "cost": "13",
        "swc": "0",
        "spec": [],
        "bsw": [
          "Rifle"
        ],
        "ccw": [
          "Pistol",
          "Knife",
          "D-Charges"
        ]
      }
    ]
  },
  {
    "id": 3025,
    "army": "Ariadna",
    "isc": "Highlander Caterans",
    "legacy_isc": "Highlander Caterans",
    "name": "Cateran",
    "type": "LI",
    "classification": "Specially Trained",
    "imp": "",
    "irr": "X",
    "cube": "",
    "mov": "4-4",
    "cc": "19",
    "bs": "12",
    "ph": "13",
    "wip": "12",
    "arm": "0",
    "bts": "0",
    "w": "1",
    "s": "2",
    "ava": "1",
    "spec": [
      "CH: Limited Camouflage",
      "CH: Mimetism",
      "Climbing Plus"
    ],
    "childs": [
      {
        "id": 1,
        "name": "T2 Sniper Rifle",
        "legacy_code": "T2 Sniper Rifle",
        "cost": "24",
        "swc": "1",
        "spec": [],
        "bsw": [
          "T2 Sniper Rifle"
        ],
        "ccw": [
          "AP CCW",
          "Pistol"
        ]
      },
      {
        "id": 2,
        "name": "Sniper Rifle",
        "legacy_code": "Default",
        "cost": "21",
        "swc": "0.5",
        "spec": [],
        "bsw": [
          "Sniper Rifle"
        ],
        "ccw": [
          "AP CCW",
          "Pistol"
        ]
      }
    ]
  },
  {
    "id": 3026,
    "army": "Ariadna",
    "isc": "Loup-Garous",
    "legacy_isc": "Loup-Garous",
    "name": "Loup-Garou",
    "type": "LI",
    "classification": "Specially Trained",
    "imp": "",
    "irr": "",
    "cube": "",
    "mov": "4-4",
    "cc": "14",
    "bs": "12",
    "ph": "11",
    "wip": "13",
    "arm": "2",
    "bts": "0",
    "w": "1",
    "s": "2",
    "ava": "2",
    "spec": [
      "V: Courage",
      "X Visor"
    ],
    "childs": [
      {
        "id": 1,
        "name": "Sniper Rifle",
        "legacy_code": "Sniper Rifle",
        "cost": "21",
        "swc": "0.5",
        "spec": [],
        "bsw": [
          "Sniper Rifle"
        ],
        "ccw": [
          "Knife",
          "Pistol"
        ]
      },
      {
        "id": 2,
        "name": "Flash Light Grenade Launcher",
        "legacy_code": "Flash Light Grenade Launcher",
        "cost": "22",
        "swc": "1.5",
        "spec": [],
        "bsw": [
          "Viral Rifle",
          "Flash Light Grenade Launcher"
        ],
        "ccw": [
          "Knife",
          "Pistol"
        ]
      },
      {
        "id": 3,
        "name": "ADHL",
        "legacy_code": "ADHL",
        "cost": "18",
        "swc": "0",
        "spec": [],
        "bsw": [
          "Boarding Shotgun",
          "Adhesive Launcher",
          "Flash Grenades"
        ],
        "ccw": [
          "Knife",
          "Pistol"
        ]
      },
      {
        "id": 4,
        "name": "Viral",
        "legacy_code": "Default",
        "cost": "21",
        "swc": "0",
        "spec": [],
        "bsw": [
          "Viral Rifle",
          "Flash Grenades"
        ],
        "ccw": [
          "Knife",
          "Pistol"
        ]
      }
    ]
  },
  {
    "id": 3027,
    "army": "Ariadna",
    "isc": "Métros",
    "legacy_isc": "Métros",
    "name": "Métro",
    "type": "LI",
    "classification": "Garrison",
    "imp": "",
    "irr": "",
    "cube": "",
    "mov": "4-4",
    "cc": "13",
    "bs": "10",
    "ph": "11",
    "wip": "12",
    "arm": "1",
    "bts": "0",
    "w": "1",
    "s": "2",
    "ava": "2",
    "spec": [
      "Multiterrain"
    ],
    "childs": [
      {
        "id": 1,
        "name": "Lieutenant",
        "legacy_code": "Lieutenant",
        "cost": "8",
        "swc": "2",
        "spec": [
          "Lieutenant"
        ],
        "bsw": [
          "Rifle"
        ],
        "ccw": [
          "Knife",
          "Pistol"
        ]
      },
      {
        "id": 2,
        "name": "Paramedic",
        "legacy_code": "Paramedic",
        "cost": "10",
        "swc": "0",
        "spec": [
          "Paramedic",
          "MediKit"
        ],
        "bsw": [
          "Rifle"
        ],
        "ccw": [
          "Knife",
          "Pistol"
        ]
      },
      {
        "id": 3,
        "name": "Camo Light Grenade Launcher",
        "legacy_code": "Camo Light Grenade Launcher",
        "cost": "15",
        "swc": "1",
        "spec": [
          "CH: Limited Camouflage",
          "Inferior Infiltration"
        ],
        "bsw": [
          "Rifle",
          "Light Grenade Launcher"
        ],
        "ccw": [
          "Knife",
          "Pistol"
        ]
      },
      {
        "id": 4,
        "name": "Camo D.E.P.",
        "legacy_code": "Camo D.E.P.",
        "cost": "12",
        "swc": "0.5",
        "spec": [
          "CH: Limited Camouflage",
          "Inferior Infiltration"
        ],
        "bsw": [
          "Rifle",
          "D.E.P."
        ],
        "ccw": [
          "Knife",
          "Pistol"
        ]
      },
      {
        "id": 5,
        "name": "Camo D-Charges",
        "legacy_code": "Camo D-Charges",
        "cost": "11",
        "swc": "0",
        "spec": [
          "CH: Limited Camouflage",
          "Inferior Infiltration"
        ],
        "bsw": [
          "Rifle"
        ],
        "ccw": [
          "Knife",
          "Pistol",
          "D-Charges"
        ]
      },
      {
        "id": 6,
        "name": "Light Grenade Launcher",
        "legacy_code": "Light Grenade Launcher",
        "cost": "12",
        "swc": "0.5",
        "spec": [],
        "bsw": [
          "Rifle",
          "Light Grenade Launcher"
        ],
        "ccw": [
          "Knife",
          "Pistol"
        ]
      },
      {
        "id": 7,
        "name": "HMG",
        "legacy_code": "HMG",
        "cost": "19",
        "swc": "0.5",
        "spec": [],
        "bsw": [
          "HMG"
        ],
        "ccw": [
          "Knife",
          "Pistol"
        ]
      },
      {
        "id": 8,
        "name": "Rifle",
        "legacy_code": "Default",
        "cost": "8",
        "swc": "0",
        "spec": [],
        "bsw": [
          "Rifle"
        ],
        "ccw": [
          "Knife",
          "Pistol"
        ]
      }
    ]
  },
  {
    "id": 3028,
    "army": "Ariadna",
    "isc": "Traktor Mul, Artillery and Support Regiment",
    "legacy_isc": "Traktor Mul, Artillery and Support Regiment",
    "name": "Traktor Mul",
    "type": "REM",
    "classification": "Support",
    "imp": "",
    "irr": "",
    "cube": "",
    "hackable": "X",
    "mov": "4-4",
    "cc": "8",
    "bs": "10",
    "ph": "9",
    "wip": "12",
    "arm": "2",
    "bts": "0",
    "w": "1",
    "s": "4",
    "ava": "2",
    "spec": [
      "G: Remote Presence",
      "Baggage"
    ],
    "childs": [
      {
        "id": 1,
        "name": "Uragan",
        "legacy_code": "Uragan",
        "cost": "18",
        "swc": "1",
        "spec": [
          "Total Reaction"
        ],
        "bsw": [
          "Uragan MRL"
        ],
        "ccw": [
          "Electric Pulse"
        ]
      },
      {
        "id": 2,
        "name": "Katyusha",
        "legacy_code": "Katyusha",
        "cost": "11",
        "swc": "1",
        "spec": [],
        "bsw": [
          "Katyusha MRL"
        ],
        "ccw": [
          "Electric Pulse"
        ]
      },
      {
        "id": 3,
        "name": "Minesweeper",
        "legacy_code": "Default",
        "cost": "5",
        "swc": "0",
        "spec": [
          "Minesweeper"
        ],
        "bsw": [],
        "ccw": [
          "Electric Pulse"
        ]
      }
    ]
  },
  {
    "id": 3029,
    "army": "Ariadna",
    "isc": "William Wallace",
    "legacy_isc": "William Wallace",
    "name": "Wallace",
    "type": "WB",
    "classification": "Character",
    "imp": "F",
    "irr": "",
    "cube": "X",
    "mov": "6-4",
    "cc": "22",
    "bs": "13",
    "ph": "14",
    "wip": "15",
    "arm": "3",
    "bts": "0",
    "w": "1",
    "s": "2",
    "ava": "1",
    "spec": [
      "Berserk",
      "Inspiring Leadership",
      "Kinematika L1",
      "V: No Wound Incapacitation"
    ],
    "childs": [
      {
        "id": 1,
        "name": "Lieutenant",
        "legacy_code": "Lieutenant",
        "cost": "35",
        "swc": "0",
        "spec": [
          "Lieutenant"
        ],
        "bsw": [
          "Combi Rifle",
          "Light Flamethrower",
          "Smoke Grenades"
        ],
        "ccw": [
          "Pistol",
          "EXP CCW"
        ]
      },
      {
        "id": 2,
        "name": "Combi",
        "legacy_code": "Default",
        "cost": "35",
        "swc": "0",
        "spec": [],
        "bsw": [
          "Combi Rifle",
          "Light Flamethrower",
          "Smoke Grenades"
        ],
        "ccw": [
          "Pistol",
          "EXP CCW"
        ]
      }
    ]
  },
  {
    "id": 3030,
    "army": "Ariadna",
    "isc": "Zouaves",
    "legacy_isc": "Zouaves",
    "name": "Zouave",
    "type": "LI",
    "classification": "Specially Trained",
    "imp": "",
    "irr": "",
    "cube": "",
    "mov": "4-4",
    "cc": "13",
    "bs": "12",
    "ph": "10",
    "wip": "13",
    "arm": "2",
    "bts": "0",
    "w": "1",
    "s": "2",
    "ava": "2",
    "spec": [
      "Mechanized Deployment",
      "V: Courage"
    ],
    "childs": [
      {
        "id": 1,
        "name": "Lieutenant",
        "legacy_code": "Lieutenant",
        "cost": "20",
        "swc": "1",
        "spec": [
          "Lieutenant"
        ],
        "bsw": [
          "Rifle",
          "D.E.P."
        ],
        "ccw": [
          "Knife",
          "Assault Pistol"
        ]
      },
      {
        "id": 2,
        "name": "Paramedic",
        "legacy_code": "Paramedic",
        "cost": "22",
        "swc": "0.5",
        "spec": [
          "Paramedic",
          "MediKit"
        ],
        "bsw": [
          "Rifle",
          "D.E.P."
        ],
        "ccw": [
          "Knife",
          "Assault Pistol"
        ]
      },
      {
        "id": 3,
        "name": "Sniper Rifle",
        "legacy_code": "Sniper Rifle",
        "cost": "25",
        "swc": "0.5",
        "spec": [
          "Sapper"
        ],
        "bsw": [
          "Sniper Rifle"
        ],
        "ccw": [
          "Knife",
          "Pistol"
        ]
      },
      {
        "id": 4,
        "name": "HMG",
        "legacy_code": "HMG",
        "cost": "30",
        "swc": "1.5",
        "spec": [
          "Sapper"
        ],
        "bsw": [
          "HMG"
        ],
        "ccw": [
          "Knife",
          "Pistol"
        ]
      },
      {
        "id": 5,
        "name": "Observer",
        "legacy_code": "Observer",
        "cost": "21",
        "swc": "0.5",
        "spec": [
          "Forward Observer"
        ],
        "bsw": [
          "Rifle",
          "D.E.P."
        ],
        "ccw": [
          "Knife",
          "Assault Pistol"
        ]
      },
      {
        "id": 6,
        "name": "Light Grenade Launcher",
        "legacy_code": "Light Grenade Launcher",
        "cost": "20",
        "swc": "1",
        "spec": [],
        "bsw": [
          "Rifle",
          "Light Grenade Launcher"
        ],
        "ccw": [
          "Knife",
          "Pistol"
        ]
      },
      {
        "id": 7,
        "name": "E/Mauler",
        "legacy_code": "E/Mauler",
        "cost": "21",
        "swc": "1",
        "spec": [],
        "bsw": [
          "Rifle",
          "D.E.P.",
          "E/Mauler"
        ],
        "ccw": [
          "Knife",
          "Assault Pistol"
        ]
      },
      {
        "id": 8,
        "name": "Rifle",
        "legacy_code": "Default",
        "cost": "20",
        "swc": "0.5",
        "spec": [],
        "bsw": [
          "Rifle",
          "D.E.P."
        ],
        "ccw": [
          "Knife",
          "Assault Pistol"
        ]
      }
    ]
  },
  {
    "id": 3031,
    "army": "Ariadna",
    "isc": "Van Zant",
    "legacy_isc": "Van Zant",
    "name": "Van Zant",
    "type": "LI",
    "classification": "Character",
    "imp": "",
    "irr": "",
    "cube": "",
    "mov": "4-4",
    "cc": "22",
    "bs": "13",
    "ph": "13",
    "wip": "14",
    "arm": "2",
    "bts": "0",
    "w": "1",
    "s": "2",
    "ava": "1",
    "spec": [
      "AD: Tactical Jump",
      "Kinematika L1",
      "Martial Arts L2",
      "V: Dogged"
    ],
    "childs": [
      {
        "id": 1,
        "name": "AP Rifle",
        "legacy_code": "Default",
        "cost": "38",
        "swc": "0",
        "spec": [],
        "bsw": [
          "AP Rifle"
        ],
        "ccw": [
          "AP CCW",
          "Heavy Pistol"
        ]
      },
      {
        "id": 2,
        "name": "Executive Order",
        "legacy_code": "Executive Order",
        "cost": "39",
        "swc": "0",
        "spec": [
          "Executive Order"
        ],
        "bsw": [
          "AP Rifle"
        ],
        "ccw": [
          "AP CCW",
          "Heavy Pistol"
        ]
      }
    ]
  },
  {
    "id": 3032,
    "army": "Ariadna",
    "isc": "Volunteer Intel Isobel McGregor",
    "legacy_isc": "Volunteer Intel Isobel McGregor",
    "name": "Isobel McGregor",
    "image": 3040,
    "type": "LI",
    "classification": "Character",
    "imp": "",
    "irr": "",
    "cube": "",
    "mov": "4-4",
    "cc": "13",
    "bs": "12",
    "ph": "11",
    "wip": "13",
    "arm": "2",
    "bts": "0",
    "w": "1",
    "s": "2",
    "ava": "1",
    "spec": [
      "White Hacking Device",
      "V: Courage"
    ],
    "childs": [
      {
        "id": 1,
        "name": "Rifle",
        "legacy_code": "Default",
        "cost": "23",
        "swc": "0.5",
        "spec": [],
        "bsw": [
          "Flash Pulse",
          "E/Mauler",
          "Rifle"
        ],
        "ccw": [
          "D-Charges",
          "Knife",
          "Assault Pistol"
        ]
      },
      {
        "id": 2,
        "name": "T2 Rifle",
        "legacy_code": "T2 Rifle",
        "cost": "26",
        "swc": "0.5",
        "spec": [],
        "bsw": [
          "Flash Pulse",
          "E/Mauler",
          "T2 Rifle"
        ],
        "ccw": [
          "D-Charges",
          "Knife",
          "Pistol"
        ]
      }
    ]
  },
  {
    "id": 3033,
    "army": "Ariadna",
    "isc": "Uxia McNeill",
    "legacy_isc": "Uxia McNeill",
    "name": "Uxia McNeill",
    "image": 3011,
    "type": "SK",
    "classification": "Character",
    "imp": "F",
    "irr": "",
    "cube": "",
    "mov": "4-4",
    "cc": "21",
    "bs": "11",
    "ph": "13",
    "wip": "13",
    "arm": "0",
    "bts": "0",
    "w": "1",
    "s": "2",
    "ava": "1",
    "spec": [
      "Kinematika L1",
      "Martial Arts L2",
      "Multiterrain"
    ],
    "childs": [
      {
        "id": 1,
        "name": "S.A.S. CP",
        "legacy_code": "Default",
        "cost": "28",
        "swc": "0",
        "spec": [
          "CH: Camouflage",
          "Infiltration",
          "Multispectral Visor L1"
        ],
        "bsw": [
          "Boarding Shotgun",
          "Smoke Grenades",
          "Grenades"
        ],
        "ccw": [
          "AP CCW",
          "Knife",
          "Pistol"
        ]
      },
      {
        "id": 2,
        "name": "Covert Action",
        "legacy_code": "Covert Action",
        "cost": "27",
        "swc": "0",
        "spec": [
          "CH: Limited Camouflage",
          "Superior Infiltration",
          "Specialist Operative"
        ],
        "bsw": [
          "Boarding Shotgun",
          "Smoke Grenades"
        ],
        "ccw": [
          "AP CCW",
          "Knife",
          "D-Charges",
          "Assault Pistol (2)"
        ]
      }
    ]
  },
  {
    "id": 3034,
    "army": "Ariadna",
    "isc": "Brigadier Jacques Bruant",
    "legacy_isc": "Brigadier Jacques Bruant",
    "name": "Jacques Bruant",
    "image": 3027,
    "type": "LI",
    "classification": "Character",
    "imp": "",
    "irr": "",
    "cube": "",
    "mov": "4-4",
    "cc": "14",
    "bs": "12",
    "ph": "11",
    "wip": "13",
    "arm": "2",
    "bts": "0",
    "w": "1",
    "s": "2",
    "ava": "1",
    "spec": [
      "X Visor",
      "CH: Limited Camouflage",
      "Multiterrain"
    ],
    "childs": [
      {
        "id": 1,
        "name": "Molotok",
        "legacy_code": "Default",
        "cost": "28",
        "swc": "1",
        "spec": [],
        "bsw": [
          "Molotok"
        ],
        "ccw": [
          "D-Charges",
          "Pistol",
          "Knife"
        ]
      },
      {
        "id": 2,
        "name": "Inferior Infiltration",
        "legacy_code": "Inferior Infiltration",
        "cost": "31",
        "swc": "1",
        "spec": [
          "Inferior Infiltration"
        ],
        "bsw": [
          "Molotok"
        ],
        "ccw": [
          "D-Charges",
          "Pistol",
          "Knife"
        ]
      },
      {
        "id": 3,
        "name": "Lieutenant",
        "legacy_code": "Lieutenant",
        "cost": "28",
        "swc": "1",
        "spec": [
          "Lieutenant"
        ],
        "bsw": [
          "Molotok"
        ],
        "ccw": [
          "D-Charges",
          "Pistol",
          "Knife"
        ]
      }
    ]
  },
  {
    "id": 3035,
    "army": "Ariadna",
    "isc": "Scot (2nd Battalion)",
    "legacy_isc": "Scot (2nd Battalion)",
    "name": "Scot 2nd",
    "sharedAva": "Scot",
    "type": "MI",
    "classification": "Specially Trained",
    "imp": "",
    "irr": "",
    "cube": "",
    "mov": "4-2",
    "cc": "15",
    "bs": "12",
    "ph": "12",
    "wip": "13",
    "arm": "3",
    "bts": "0",
    "w": "1",
    "s": "2",
    "ava": "2",
    "spec": [
      "V: Courage",
      "Multiterrain",
      "CH: Camouflage"
    ],
    "childs": [
      {
        "id": 1,
        "name": "Submachine Gun",
        "legacy_code": "Default",
        "cost": "22",
        "swc": "0",
        "spec": [],
        "bsw": [
          "Submachine Gun (2)",
          "D.E.P."
        ],
        "ccw": [
          "Knife",
          "Pistol"
        ]
      },
      {
        "id": 2,
        "name": "Molotok",
        "legacy_code": "Molotok",
        "cost": "30",
        "swc": "1.5",
        "spec": [],
        "bsw": [
          "Molotok"
        ],
        "ccw": [
          "Knife",
          "Pistol"
        ]
      },
      {
        "id": 3,
        "name": "Missile Launcher",
        "legacy_code": "Missile Launcher",
        "cost": "31",
        "swc": "1.5",
        "spec": [],
        "bsw": [
          "Missile Launcher"
        ],
        "ccw": [
          "Knife",
          "Assault Pistol"
        ]
      },
      {
        "id": 4,
        "name": "AP Marksman",
        "cost": "27",
        "swc": "0",
        "spec": [],
        "bsw": [
          "AP Marksman Rifle"
        ],
        "ccw": [
          "Knife",
          "Pistol"
        ]
      }
    ]
  },
  {
    "id": 3036,
    "army": "Ariadna",
    "isc": "Scot (1st Battalion)",
    "legacy_isc": "Scot (1st Battalion)",
    "name": "Scot 1st",
    "sharedAva": "Scot",
    "image": 3035,
    "type": "MI",
    "classification": "Specially Trained",
    "imp": "",
    "irr": "",
    "cube": "",
    "mov": "4-2",
    "cc": "15",
    "bs": "12",
    "ph": "12",
    "wip": "13",
    "arm": "3",
    "bts": "0",
    "w": "1",
    "s": "2",
    "ava": "2",
    "spec": [
      "V: Courage",
      "Multiterrain",
      "Fireteam: Duo"
    ],
    "childs": [
      {
        "id": 1,
        "name": "AP Marksman Observer",
        "legacy_code": "AP Marksman",
        "cost": "24",
        "swc": "0",
        "spec": [
          "Forward Observer"
        ],
        "bsw": [
          "AP Marksman Rifle"
        ],
        "ccw": [
          "Knife",
          "Pistol"
        ]
      },
      {
        "id": 2,
        "name": "Submachine Gun Observer",
        "legacy_code": "Default",
        "cost": "19",
        "swc": "0",
        "spec": [
          "Forward Observer"
        ],
        "bsw": [
          "Submachine Gun (2)",
          "D.E.P."
        ],
        "ccw": [
          "Knife",
          "Pistol"
        ]
      },
      {
        "id": 3,
        "name": "Molotok",
        "legacy_code": "Molotok",
        "cost": "26",
        "swc": "1.5",
        "spec": [],
        "bsw": [
          "Molotok"
        ],
        "ccw": [
          "Knife",
          "Pistol"
        ]
      },
      {
        "id": 4,
        "name": "Missile Launcher",
        "legacy_code": "Missile Launcher",
        "cost": "27",
        "swc": "1.5",
        "spec": [],
        "bsw": [
          "Missile Launcher"
        ],
        "ccw": [
          "Knife",
          "Assault Pistol"
        ]
      },
      {
        "id": 5,
        "name": "Lieutenant",
        "legacy_code": "Lieutenant",
        "cost": "23",
        "swc": "0",
        "spec": [
          "Lieutenant"
        ],
        "bsw": [
          "AP Marksman Rifle"
        ],
        "ccw": [
          "Knife",
          "Pistol"
        ]
      }
    ]
  },
  {
    "id": 3037,
    "army": "Ariadna",
    "isc": "Briscard",
    "legacy_isc": "Briscard",
    "name": "Briscard",
    "type": "MI",
    "classification": "Veteran",
    "imp": "",
    "irr": "",
    "cube": "",
    "mov": "4-4",
    "cc": "14",
    "bs": "12",
    "ph": "11",
    "wip": "13",
    "arm": "2",
    "bts": "0",
    "w": "1",
    "s": "2",
    "ava": "2",
    "spec": [
      "Mountain Terrain",
      "Multispectral Visor L1",
      "V: Courage"
    ],
    "childs": [
      {
        "id": 1,
        "name": "Marksman Rifle",
        "legacy_code": "Default",
        "cost": "24",
        "swc": "0",
        "spec": [],
        "bsw": [
          "Marksman Rifle"
        ],
        "ccw": [
          "Knife",
          "Assault Pistol"
        ]
      },
      {
        "id": 2,
        "name": "Lieutenant",
        "legacy_code": "Lieutenant",
        "cost": "24",
        "swc": "0",
        "spec": [
          "Lieutenant"
        ],
        "bsw": [
          "Marksman Rifle"
        ],
        "ccw": [
          "Knife",
          "Assault Pistol"
        ]
      },
      {
        "id": 3,
        "name": "Observer",
        "legacy_code": "Observer",
        "cost": "25",
        "swc": "0",
        "spec": [
          "Forward Observer"
        ],
        "bsw": [
          "Marksman Rifle"
        ],
        "ccw": [
          "Knife",
          "Assault Pistol"
        ]
      },
      {
        "id": 4,
        "name": "Paramedic",
        "legacy_code": "Paramedic",
        "cost": "26",
        "swc": "0",
        "spec": [
          "Paramedic"
        ],
        "bsw": [
          "Marksman Rifle"
        ],
        "ccw": [
          "Knife",
          "Assault Pistol"
        ]
      },
      {
        "id": 5,
        "name": "Heavy Rocket Launcher",
        "legacy_code": "Heavy Rocket Launcher",
        "cost": "23",
        "swc": "1.5",
        "spec": [],
        "bsw": [
          "Heavy Rocket Launcher"
        ],
        "ccw": [
          "Knife",
          "Assault Pistol"
        ]
      },
      {
        "id": 6,
        "name": "Sniper Rifle",
        "legacy_code": "Sniper Rifle",
        "cost": "25",
        "swc": "1",
        "spec": [],
        "bsw": [
          "Sniper Rifle"
        ],
        "ccw": [
          "Knife",
          "Pistol"
        ]
      }
    ]
  },
  {
    "id": 3038,
    "army": "Ariadna",
    "isc": "Equipe Mirage-5",
    "legacy_isc": "Margot Berthier, Mirage-5",
    "name": "Margot",
    "ava": "1",
    "spec": [],
    "profiles": [
      {
        "id": 1,
        "isc": "Margot Berthier",
        "name": "Margot",
        "type": "HI",
        "classification": "Character",
        "imp": "",
        "irr": "",
        "cube": "",
        "mov": "4-4",
        "cc": "14",
        "bs": "14",
        "ph": "12",
        "wip": "13",
        "arm": "3",
        "bts": "0",
        "w": "1",
        "s": "2",
        "spec": [
          "AD: Airborne Infiltration",
          "Shock Immunity",
          "Multiterrain",
          "Not Hackable"
        ],
        "bsw": [],
        "ccw": [],
        "independent": {
          "cost": "37",
          "swc": "2"
        }
      },
      {
        "id": 2,
        "isc": "Duroc",
        "name": "Duroc",
        "type": "WB",
        "classification": "Elite",
        "imp": "X",
        "irr": "X",
        "cube": "",
        "mov": "6-4",
        "cc": "20",
        "bs": "10",
        "ph": "16",
        "wip": "13",
        "arm": "3",
        "bts": "0",
        "w": "2",
        "s": "6",
        "ava": "1",
        "spec": [
          "AD: Airborne Infiltration",
          "Martial Arts L2",
          "Total Immunity",
          "Super-Jump"
        ],
        "bsw": [
          "Chain Rifle (2)",
          "Grenades",
          "Smoke Grenades"
        ],
        "ccw": [
          "AP CCW"
        ],
        "independent": {
          "cost": "32",
          "swc": "0"
        }
      }
    ],
    "childs": [
      {
        "id": 1,
        "name": "Mirage-5",
        "legacy_code": "Default",
        "cost": "69",
        "swc": "2",
        "spec": [],
        "bsw": [
          "AP Rifle",
          "Light Grenade Launcher"
        ],
        "ccw": [
          "Pistol",
          "Knife"
        ]
      }
    ]
  },
  {
    "id": 3039,
    "army": "Ariadna",
    "isc": "Dog-Warriors",
    "legacy_isc": "Dog-Warriors",
    "name": "Dog-Warrior",
    "ava": "2",
    "spec": [],
    "profiles": [
      {
        "id": 1,
        "name": "Form: Dogface",
        "type": "WB",
        "classification": "Support",
        "imp": "X",
        "irr": "X",
        "cube": "",
        "mov": "4-4",
        "cc": "19",
        "bs": "10",
        "ph": "14",
        "wip": "12",
        "arm": "1",
        "bts": "0",
        "w": "1",
        "s": "2",
        "ava": "2",
        "spec": [
          "Super-Jump",
          "Total Immunity",
          "Transmutation",
          "V: Courage"
        ],
        "bsw": [],
        "ccw": []
      },
      {
        "id": 2,
        "name": "Form: Dog-Warrior",
        "type": "WB",
        "imp": "X",
        "irr": "X",
        "cube": "",
        "mov": "6-4",
        "cc": "21",
        "bs": "10",
        "ph": "16",
        "wip": "12",
        "arm": "3",
        "bts": "0",
        "w": "2",
        "s": "6",
        "ava": "-",
        "spec": [
          "Super-Jump",
          "Total Immunity",
          "V: Courage"
        ],
        "bsw": [],
        "ccw": []
      }
    ],
    "childs": [
      {
        "id": 1,
        "name": "Dog-Warrior",
        "legacy_code": "Default",
        "cost": "27",
        "swc": "0",
        "spec": [],
        "bsw": [
          "Chain Rifle (2)",
          "Grenades",
          "Smoke Grenades"
        ],
        "ccw": [
          "AP CCW"
        ]
      }
    ]
  },
  {
    "id": 3040,
    "army": "Ariadna",
    "isc": "Intel Spec-Ops",
    "legacy_isc": "Intel Spec-Ops",
    "name": "Intel",
    "type": "SPEC-OPS",
    "imp": "",
    "irr": "",
    "cube": "",
    "mov": "X-X",
    "cc": "X",
    "bs": "X",
    "ph": "X",
    "wip": "X",
    "arm": "X",
    "bts": "X",
    "w": "X",
    "ava": "1",
    "spec": [
      "Spec-Op"
    ],
    "childs": [
      {
        "id": 1,
        "name": "Spec-Ops",
        "legacy_code": "Default",
        "cost": "0",
        "swc": "0",
        "spec": [],
        "bsw": [],
        "ccw": []
      }
    ]
  },
  {
    "id": 3041,
    "army": "Ariadna",
    "isc": "Marauders, 5307th Ranger Unit",
    "legacy_isc": "Marauders, 5307th Ranger Unit",
    "name": "Marauder",
    "type": "MI",
    "classification": "Veteran",
    "imp": "",
    "irr": "",
    "cube": "",
    "mov": "4-2",
    "cc": "14",
    "bs": "12",
    "ph": "12",
    "wip": "13",
    "arm": "3",
    "bts": "0",
    "w": "1",
    "s": "2",
    "ava": "3",
    "spec": [
      "Forward Deployment L1",
      "Stealth",
      "Jungle Terrain",
      "V: Dogged"
    ],
    "childs": [
      {
        "id": 1,
        "name": "Rifle",
        "legacy_code": "Default",
        "cost": "21",
        "swc": "0",
        "spec": [],
        "bsw": [
          "Rifle",
          "Heavy Flamethrower"
        ],
        "ccw": [
          "Knife",
          "Heavy Pistol"
        ]
      },
      {
        "id": 2,
        "name": "Molotok",
        "legacy_code": "Molotok",
        "cost": "28",
        "swc": "1.5",
        "spec": [],
        "bsw": [
          "Molotok"
        ],
        "ccw": [
          "Knife",
          "Heavy Pistol"
        ]
      },
      {
        "id": 3,
        "name": "Boarding Shotgun",
        "legacy_code": "Boarding Shotgun",
        "cost": "22",
        "swc": "0",
        "spec": [],
        "bsw": [
          "Boarding Shotgun",
          "Antipersonnel Mines"
        ],
        "ccw": [
          "Knife",
          "Heavy Pistol"
        ]
      },
      {
        "id": 4,
        "name": "Sniper",
        "legacy_code": "Sniper",
        "cost": "29",
        "swc": "0.5",
        "spec": [
          "Multispectral Visor L1"
        ],
        "bsw": [
          "Sniper Rifle"
        ],
        "ccw": [
          "Knife",
          "Heavy Pistol"
        ]
      },
      {
        "id": 5,
        "name": "Heavy Rocket Launcher",
        "legacy_code": "Heavy Rocket Launcher",
        "cost": "26",
        "swc": "1.5",
        "spec": [
          "Multispectral Visor L1"
        ],
        "bsw": [
          "Heavy Rocket Launcher"
        ],
        "ccw": [
          "Knife",
          "Assault Pistol"
        ]
      },
      {
        "id": 6,
        "name": "Paramedic",
        "legacy_code": "Paramedic",
        "cost": "23",
        "swc": "0",
        "spec": [
          "Paramedic",
          "MediKit"
        ],
        "bsw": [
          "Rifle",
          "Heavy Flamethrower"
        ],
        "ccw": [
          "Knife",
          "Heavy Pistol"
        ]
      },
      {
        "id": 7,
        "name": "Haris",
        "legacy_code": "Haris",
        "cost": "22",
        "swc": "1",
        "spec": [
          "Fireteam: Haris"
        ],
        "bsw": [
          "Rifle",
          "Heavy Flamethrower"
        ],
        "ccw": [
          "Knife",
          "Heavy Pistol"
        ]
      },
      {
        "id": 8,
        "name": "Lieutenant",
        "legacy_code": "Lieutenant",
        "cost": "21",
        "swc": "0",
        "spec": [
          "Lieutenant"
        ],
        "bsw": [
          "Rifle",
          "Heavy Flamethrower"
        ],
        "ccw": [
          "Knife",
          "Heavy Pistol"
        ]
      }
    ]
  },
  {
    "id": 3042,
    "army": "Ariadna",
    "isc": "Mavericks, 9th Motorized Recon Bat.",
    "legacy_isc": "Mavericks, 9th Motorized Recon Bat.",
    "name": "Maverick",
    "ava": "2",
    "spec": [
      "Multispectral Visor L1"
    ],
    "profiles": [
      {
        "id": 1,
        "type": "MI",
        "classification": "Specially Trained",
        "imp": "I",
        "irr": "",
        "cube": "",
        "mov": "8-4",
        "cc": "14",
        "bs": "12",
        "ph": "12",
        "wip": "13",
        "arm": "3",
        "bts": "0",
        "w": "1",
        "s": "4",
        "spec": [
          "Motorcycle",
          "Kinematika L1"
        ],
        "bsw": [
          "Smoke Light Grenade Launcher"
        ],
        "ccw": []
      },
      {
        "id": 2,
        "name": "Dismounted",
        "mov": "4-2",
        "s": "2",
        "spec": [],
        "bsw": [],
        "ccw": []
      }
    ],
    "childs": [
      {
        "id": 1,
        "name": "Molotok",
        "legacy_code": "Molotok",
        "cost": "29",
        "swc": "2",
        "spec": [],
        "bsw": [
          "Molotok"
        ],
        "ccw": [
          "Pistol",
          "Knife"
        ]
      },
      {
        "id": 2,
        "name": "Boarding Shotgun",
        "legacy_code": "Boarding Shotgun",
        "cost": "21",
        "swc": "0",
        "spec": [],
        "bsw": [
          "Boarding Shotgun"
        ],
        "ccw": [
          "Pistol",
          "Knife"
        ]
      },
      {
        "id": 3,
        "name": "Light Rocket Launcher",
        "legacy_code": "Light Rocket Launcher",
        "cost": "22",
        "swc": "0.5",
        "spec": [],
        "bsw": [
          "Submachine Gun",
          "Light Rocket Launcher"
        ],
        "ccw": [
          "Pistol",
          "Knife"
        ]
      },
      {
        "id": 4,
        "name": "Forward Observer",
        "legacy_code": "Forward Observer",
        "cost": "19",
        "swc": "0.5",
        "spec": [
          "Forward Observer"
        ],
        "bsw": [
          "Rifle"
        ],
        "ccw": [
          "Pistol",
          "Knife"
        ]
      }
    ]
  },
  {
    "id": 3043,
    "army": "Ariadna",
    "isc": "Devil Dog Teams, 2nd Assault Bat.",
    "legacy_isc": "Devil Dog Teams, 2nd Assault Bat.",
    "name": "Devil Dog",
    "ava": "1",
    "spec": [],
    "profiles": [
      {
        "id": 1,
        "type": "WB",
        "classification": "Support",
        "imp": "X",
        "irr": "X",
        "cube": "",
        "mov": "6-4",
        "cc": "21",
        "bs": "10",
        "ph": "16",
        "wip": "12",
        "arm": "4",
        "bts": "0",
        "w": "2",
        "s": "6",
        "spec": [
          "V: Courage",
          "Total Immunity",
          "Super-Jump",
          "Aquatic Terrain"
        ],
        "bsw": [],
        "ccw": []
      },
      {
        "id": 2,
        "name": "K-9 Antipode",
        "type": "WB",
        "imp": "X",
        "irr": "X",
        "cube": "",
        "mov": "6-6",
        "cc": "20",
        "bs": "0",
        "ph": "15",
        "wip": "13",
        "arm": "0",
        "bts": "0",
        "w": "1",
        "s": "5",
        "spec": [
          "G: Synchronized",
          "CH: Mimetism",
          "Kinematika L2",
          "Sensor",
          "Super-Jump",
          "Aquatic Terrain"
        ],
        "bsw": [],
        "ccw": [
          "AP CCW"
        ],
        "independent": {
          "cost": "7",
          "swc": "0"
        }
      }
    ],
    "childs": [
      {
        "id": 1,
        "name": "Chain Rifle",
        "legacy_code": "Default",
        "cost": "30",
        "swc": "0",
        "spec": [],
        "bsw": [
          "Chain Rifle",
          "Smoke Grenades"
        ],
        "ccw": [
          "AP Heavy Pistol",
          "AP CCW"
        ]
      },
      {
        "id": 2,
        "name": "Heavy Shotgun",
        "legacy_code": "Heavy Shotgun",
        "cost": "39",
        "swc": "0",
        "spec": [],
        "bsw": [
          "Heavy Shotgun",
          "Smoke Grenades"
        ],
        "ccw": [
          "AP CCW"
        ]
      }
    ]
  },
  {
    "id": 3044,
    "army": "Ariadna",
    "isc": "6th Airborne Rangers",
    "legacy_isc": "6th Airborne Rangers",
    "name": "Airborne Ranger",
    "type": "LI",
    "classification": "Specially Trained",
    "imp": "",
    "irr": "",
    "cube": "",
    "mov": "4-4",
    "cc": "22",
    "bs": "12",
    "ph": "12",
    "wip": "13",
    "arm": "1",
    "bts": "0",
    "w": "1",
    "s": "2",
    "ava": "2",
    "spec": [
      "Martial Arts L2",
      "AD: Parachutist",
      "Kinematika L1",
      "Jungle Terrain"
    ],
    "childs": [
      {
        "id": 1,
        "name": "Submachine Gun",
        "legacy_code": "Default",
        "cost": "20",
        "swc": "0",
        "spec": [],
        "bsw": [
          "Submachine Gun"
        ],
        "ccw": [
          "Knife",
          "AP CCW",
          "Pistol"
        ]
      },
      {
        "id": 2,
        "name": "Molotok",
        "legacy_code": "Molotok",
        "cost": "32",
        "swc": "1.5",
        "spec": [],
        "bsw": [
          "Molotok"
        ],
        "ccw": [
          "Knife",
          "AP CCW",
          "Pistol"
        ]
      },
      {
        "id": 3,
        "name": "Boarding Shotgun",
        "legacy_code": "Boarding Shotgun",
        "cost": "24",
        "swc": "0",
        "spec": [],
        "bsw": [
          "Boarding Shotgun"
        ],
        "ccw": [
          "Knife",
          "AP CCW",
          "Pistol"
        ]
      },
      {
        "id": 4,
        "name": "Rifle",
        "legacy_code": "Rifle",
        "cost": "25",
        "swc": "0",
        "spec": [],
        "bsw": [
          "Rifle"
        ],
        "ccw": [
          "Knife",
          "AP CCW",
          "Assault Pistol"
        ]
      },
      {
        "id": 5,
        "name": "Forward Observer",
        "legacy_code": "Forward Observer",
        "cost": "21",
        "swc": "0",
        "spec": [
          "Forward Observer"
        ],
        "bsw": [
          "Submachine Gun"
        ],
        "ccw": [
          "Knife",
          "AP CCW",
          "Pistol"
        ]
      },
      {
        "id": 6,
        "name": "Lieutenant",
        "legacy_code": "Lieutenant",
        "cost": "20",
        "swc": "1",
        "spec": [
          "Lieutenant"
        ],
        "bsw": [
          "Submachine Gun"
        ],
        "ccw": [
          "Knife",
          "AP CCW",
          "Pistol"
        ]
      }
    ]
  },
  {
    "id": 3045,
    "army": "Ariadna",
    "isc": "Desperadoes",
    "legacy_isc": "Desperadoes",
    "name": "Desperado",
    "ava": "2",
    "spec": [
      "Sixth Sense L2",
      "V: Courage"
    ],
    "profiles": [
      {
        "id": 1,
        "type": "WB",
        "classification": "Specially Trained",
        "imp": "X",
        "irr": "X",
        "cube": "",
        "mov": "8-4",
        "cc": "18",
        "bs": "11",
        "ph": "12",
        "wip": "13",
        "arm": "1",
        "bts": "0",
        "w": "1",
        "s": "4",
        "spec": [
          "Motorcycle",
          "Kinematika L1"
        ],
        "bsw": [
          "Smoke Light Grenade Launcher"
        ],
        "ccw": []
      },
      {
        "id": 2,
        "name": "Dismounted",
        "mov": "4-4",
        "s": "2",
        "spec": [],
        "bsw": [],
        "ccw": []
      }
    ],
    "childs": [
      {
        "id": 1,
        "name": "Chain Rifle",
        "legacy_code": "Default",
        "cost": "11",
        "swc": "0",
        "spec": [],
        "bsw": [
          "Chain Rifle",
          "Smoke Grenades"
        ],
        "ccw": [
          "Heavy Pistol (2)",
          "AP CCW"
        ]
      },
      {
        "id": 2,
        "name": "Assault Pistol",
        "legacy_code": "Assault Pistol",
        "cost": "13",
        "swc": "0",
        "spec": [],
        "bsw": [
          "Chain Rifle",
          "Smoke Grenades"
        ],
        "ccw": [
          "Assault Pistol (2)",
          "CCW"
        ]
      },
      {
        "id": 3,
        "name": "Boarding Shotgun",
        "legacy_code": "Boarding Shotgun",
        "cost": "18",
        "swc": "0",
        "spec": [],
        "bsw": [
          "Boarding Shotgun",
          "Smoke Grenades"
        ],
        "ccw": [
          "Heavy Pistol (2)",
          "CCW"
        ]
      },
      {
        "id": 4,
        "name": "Submachine Gun",
        "legacy_code": "Submachine Gun",
        "cost": "13",
        "swc": "0",
        "spec": [],
        "bsw": [
          "Submachine Gun",
          "Smoke Grenades"
        ],
        "ccw": [
          "Heavy Pistol (2)",
          "CCW"
        ]
      }
    ]
  },
  {
    "id": 3046,
    "army": "Ariadna",
    "isc": "Col. Yevgueni Voronin",
    "legacy_isc": "Col. Yevgueni Voronin",
    "name": "Colonel Voronin",
    "type": "LI",
    "classification": "Character",
    "imp": "",
    "irr": "",
    "cube": "",
    "mov": "4-4",
    "cc": "18",
    "bs": "11",
    "ph": "12",
    "wip": "14",
    "arm": "0",
    "bts": "0",
    "w": "1",
    "s": "4",
    "ava": "1",
    "spec": [
      "Guard L1",
      "Sixth Sense L2",
      "Strategos L1"
    ],
    "childs": [
      {
        "id": 1,
        "name": "Rifle",
        "legacy_code": "Default",
        "cost": "21",
        "swc": "0",
        "spec": [],
        "bsw": [
          "Rifle"
        ],
        "ccw": [
          "Assault Pistol",
          "AP CCW"
        ]
      },
      {
        "id": 2,
        "name": "Lieutenant",
        "legacy_code": "Lieutenant",
        "cost": "21",
        "swc": "0",
        "spec": [
          "Lieutenant"
        ],
        "bsw": [
          "Rifle"
        ],
        "ccw": [
          "Assault Pistol",
          "AP CCW"
        ]
      }
    ]
  },
  {
    "id": 3047,
    "army": "Ariadna",
    "isc": "Blackjacks, 10th Heavy Rangers Bat.",
    "name": "Blackjack",
    "ava": "1",
    "spec": [
      "Heavyweight",
      "V: Courage"
    ],
    "profiles": [
      {
        "id": 1,
        "name": "Full Power",
        "type": "HI",
        "classification": "Headquarters",
        "imp": "",
        "irr": "",
        "cube": "",
        "hackable": "X",
        "mov": "4-2",
        "cc": "13",
        "bs": "13",
        "ph": "14",
        "wip": "13",
        "arm": "5",
        "bts": "3",
        "w": "1",
        "s": "5",
        "spec": [
          "Lo-Tech A"
        ],
        "bsw": [],
        "ccw": []
      },
      {
        "id": 2,
        "name": "Battle Ravaged",
        "mov": "4-2",
        "cc": "12",
        "bs": "12",
        "ph": "13",
        "wip": "13",
        "arm": "4",
        "bts": "0",
        "w": "1",
        "s": "5",
        "spec": [],
        "bsw": [],
        "ccw": []
      }
    ],
    "childs": [
      {
        "id": 1,
        "name": "AP HMG",
        "cost": "36",
        "swc": "2",
        "spec": [],
        "bsw": [
          "AP HMG",
          "Chest Mines",
          "D.E.P."
        ],
        "ccw": [
          "Heavy Pistol",
          "CCW"
        ]
      },
      {
        "id": 2,
        "name": "Sniper",
        "cost": "36",
        "swc": "1",
        "spec": [],
        "bsw": [
          "T2 Sniper Rifle",
          "Submachine Gun",
          "Chest Mines"
        ],
        "ccw": [
          "Heavy Pistol",
          "CCW"
        ]
      }
    ]
  },
  {
    "id": 3048,
    "army": "Ariadna",
    "isc": "The Unknown Ranger",
    "name": "Unknown Ranger",
    "type": "LI",
    "classification": "Character",
    "imp": "",
    "irr": "",
    "cube": "",
    "mov": "4-4",
    "cc": "22",
    "bs": "13",
    "ph": "13",
    "wip": "13",
    "arm": "4",
    "bts": "0",
    "w": "1",
    "s": "2",
    "ava": "1",
    "spec": [
      "CH: Mimetism",
      "Kinematika L1",
      "Natural Born Warrior",
      "Scavenger",
      "V: No Wound Incapacitation"
    ],
    "childs": [
      {
        "id": 1,
        "name": "Chain of Command",
        "cost": "41",
        "swc": "0",
        "spec": [
          "Chain of Command"
        ],
        "bsw": [
          "Rifle"
        ],
        "ccw": [
          "Heavy Pistol",
          "T2 CCW",
          "Knife"
        ]
      },
      {
        "id": 2,
        "name": "Molotok",
        "cost": "47",
        "swc": "1.5",
        "spec": [
          "Specialist Operative"
        ],
        "bsw": [
          "Molotok"
        ],
        "ccw": [
          "Heavy Pistol",
          "T2 CCW",
          "Knife"
        ]
      }
    ]
  }
]
