[
  {
    "id": 2998,
    "army": "Yu Jing",
    "army_id": 2999,
    "name": "Japanese Sectorial Army",
    "legacy_name": "Japanese Sectorial Army",
    "units": [
      {
        "comment": "Keisotsu",
        "id": 2001,
        "ava": "T",
        "childs": [
          {
            "comment": "Lieutenant costs 1 SWC in JSA",
            "id": 9,
            "swc": "1"
          }
        ],
        "linkable": true,
        "note": "Fireteam: Core may include 1 Kempeitai"
      },
      {
        "comment": "Kempeitai",
        "id": 2028,
        "ava": "2",
        "note": "1 Kempeitai may join a Fireteam: Core of Keisotsu"
      },
      {
        "comment": "Aragoto Senkenbutai",
        "id": 2030,
        "ava": "4"
      },
      {
        "comment": "Raiden Seibutai",
        "id": 2046,
        "ava": "4"
      },
      {
        "comment": "Karakuri Special Project",
        "id": 2033,
        "ava": "3"
      },
      {
        "comment": "Domaru Butai",
        "id": 2023,
        "ava": "5",
        "linkable": true
      },
      {
        "comment": "Haramaki Zensenbutai",
        "id": 2032,
        "ava": "6",
        "linkable": true,
        "note": "Fireteam: Core requires 1 or 2 Domaru"
      },
      {
        "comment": "O-Yoroi Kidobutai",
        "id": 2035,
        "ava": "2"
      },
      {
        "comment": "Shikami",
        "id": 2049,
        "ava": "2"
      },
      {
        "comment": "Ninjas",
        "id": 2013,
        "ava": "4"
      },
      {
        "comment": "Oniwaban",
        "id": 2036,
        "ava": "3"
      },
      {
        "comment": "Tokusetsu Butai",
        "id": 2037,
        "ava": "2"
      },
      {
        "comment": "Oniwaban Shinobu Kitsune",
        "id": 2040,
        "ava": "1"
      },
      {
        "comment": "Domaru Takeshi \"Neko\" Oyama",
        "id": 2041,
        "ava": "1",
        "linkable": true,
        "note": "Counts as Domaru for Fireteam composition"
      },
      {
        "comment": "Asuka Kisaragi",
        "id": 2047,
        "ava": "1"
      },
      {
        "comment": "Yáoxiè Rui Shi",
        "id": 2038,
        "ava": "1"
      },
      {
        "comment": "Yáoxiè Lù Duān",
        "id": 2039,
        "ava": "1"
      },
      {
        "comment": "Yáokòng Wèibīng",
        "id": 2017,
        "ava": "1"
      },
      {
        "comment": "Yáokòng Hùsòng",
        "id": 2018,
        "ava": "1"
      },
      {
        "comment": "Yáokòng Son-bae",
        "id": 2019,
        "ava": "1"
      },
      {
        "comment": "Yáokòng Chaīyì",
        "id": 2020,
        "ava": "1"
      },
      {
        "comment": "Yáozăo",
        "id": 2025,
        "ava": "2"
      },
      {
        "comment": "Yáopú Pangguling",
        "id": 2026,
        "ava": "2"
      },
      {
        "comment": "Guǐ Fēng Spec-Ops",
        "id": 2043,
        "ava": "1"
      },
      {
        "comment": "Keisotsu Guǐ Fēng Yuriko Oda",
        "id": 2044,
        "ava": "1",
        "linkable": true,
        "note": "Counts as Keisotsu for Fireteam composition"
      },
      {
        "comment": "Warcor",
        "id": 9017,
        "ava": "1"
      },
      {
        "comment": "Yojimbo",
        "id": 9014,
        "ava": "1"
      },
      {
        "comment": "Saito Tōgan",
        "id": 9007,
        "ava": "1"
      },
      {
        "comment": "Miyamoto Mushashi",
        "id": 9008,
        "ava": "1"
      }
    ]
  }
]
